lat,lon,time,longitude,latitude,hfls
0,0,2016-01-01 00:00:00,-133.51878,68.32029,-0.17460318573305003
0,0,2016-01-02 00:00:00,-133.51878,68.32029,-0.558957869337108
0,0,2016-01-03 00:00:00,-133.51878,68.32029,-0.9035110770819429
0,0,2016-01-04 00:00:00,-133.51878,68.32029,-0.6066642129938675
0,0,2016-01-05 00:00:00,-133.51878,68.32029,-0.5802544252987958
0,0,2016-01-06 00:00:00,-133.51878,68.32029,-0.04694397263492781
0,0,2016-01-07 00:00:00,-133.51878,68.32029,1.4474998890382285
0,0,2016-01-08 00:00:00,-133.51878,68.32029,0.11286396899661931
0,0,2016-01-09 00:00:00,-133.51878,68.32029,0.029307184431478228
0,0,2016-01-10 00:00:00,-133.51878,68.32029,0.03194769035660513
0,0,2016-01-11 00:00:00,-133.51878,68.32029,0.18066849435772356
0,0,2016-01-12 00:00:00,-133.51878,68.32029,0.02427342259849451
0,0,2016-01-13 00:00:00,-133.51878,68.32029,0.06208841154727909
0,0,2016-01-14 00:00:00,-133.51878,68.32029,0.03243250118923981
0,0,2016-01-15 00:00:00,-133.51878,68.32029,0.04348289366765518
0,0,2016-01-16 00:00:00,-133.51878,68.32029,0.09572965090739693
0,0,2016-01-17 00:00:00,-133.51878,68.32029,-0.12381600270562455
0,0,2016-01-18 00:00:00,-133.51878,68.32029,0.06432027888619589
0,0,2016-01-19 00:00:00,-133.51878,68.32029,0.07027344738003706
0,0,2016-01-20 00:00:00,-133.51878,68.32029,0.07326540451822637
0,0,2016-01-21 00:00:00,-133.51878,68.32029,-0.26995218307002916
0,0,2016-01-22 00:00:00,-133.51878,68.32029,-0.050073167284640924
0,0,2016-01-23 00:00:00,-133.51878,68.32029,-0.1663406935300636
0,0,2016-01-24 00:00:00,-133.51878,68.32029,0.2770873467572551
0,0,2016-01-25 00:00:00,-133.51878,68.32029,0.8735526983898332
0,0,2016-01-26 00:00:00,-133.51878,68.32029,0.965772340810612
0,0,2016-01-27 00:00:00,-133.51878,68.32029,1.6120835557953415
0,0,2016-01-28 00:00:00,-133.51878,68.32029,0.06633698990764977
0,0,2016-01-29 00:00:00,-133.51878,68.32029,0.06992353887394512
0,0,2016-01-30 00:00:00,-133.51878,68.32029,0.07961986879061088
0,0,2016-01-31 00:00:00,-133.51878,68.32029,0.072140821901385
0,0,2016-02-01 00:00:00,-133.51878,68.32029,0.07536159609847083
0,0,2016-02-02 00:00:00,-133.51878,68.32029,0.26214551395041114
0,0,2016-02-03 00:00:00,-133.51878,68.32029,0.9074509838783412
0,0,2016-02-04 00:00:00,-133.51878,68.32029,2.1041014336565724
0,0,2016-02-05 00:00:00,-133.51878,68.32029,1.2502052092627614
0,0,2016-02-06 00:00:00,-133.51878,68.32029,0.06718826805109487
0,0,2016-02-07 00:00:00,-133.51878,68.32029,0.052556691693606834
0,0,2016-02-08 00:00:00,-133.51878,68.32029,-0.045787328790316585
0,0,2016-02-09 00:00:00,-133.51878,68.32029,-1.1272960213176362
0,0,2016-02-10 00:00:00,-133.51878,68.32029,0.9579299505586523
0,0,2016-02-11 00:00:00,-133.51878,68.32029,3.503752495800203
0,0,2016-02-12 00:00:00,-133.51878,68.32029,4.323892581701554
0,0,2016-02-13 00:00:00,-133.51878,68.32029,4.994876121659288
0,0,2016-02-14 00:00:00,-133.51878,68.32029,2.835113258650591
0,0,2016-02-15 00:00:00,-133.51878,68.32029,0.564102880755301
0,0,2016-02-16 00:00:00,-133.51878,68.32029,0.051543262434331105
0,0,2016-02-17 00:00:00,-133.51878,68.32029,0.3594105211448657
0,0,2016-02-18 00:00:00,-133.51878,68.32029,0.3094130551958198
0,0,2016-02-19 00:00:00,-133.51878,68.32029,0.29692827472998284
0,0,2016-02-20 00:00:00,-133.51878,68.32029,2.2508482119313222
0,0,2016-02-21 00:00:00,-133.51878,68.32029,4.513486677882505
0,0,2016-02-22 00:00:00,-133.51878,68.32029,1.7582963178779323
0,0,2016-02-23 00:00:00,-133.51878,68.32029,0.1496182717938023
0,0,2016-02-24 00:00:00,-133.51878,68.32029,1.6011493297629775
0,0,2016-02-25 00:00:00,-133.51878,68.32029,3.5171942531290648
0,0,2016-02-26 00:00:00,-133.51878,68.32029,0.06816913679184691
0,0,2016-02-27 00:00:00,-133.51878,68.32029,3.0542716638469525
0,0,2016-02-28 00:00:00,-133.51878,68.32029,9.58308670265987
0,0,2016-03-01 00:00:00,-133.51878,68.32029,4.508982541414604
0,0,2016-03-02 00:00:00,-133.51878,68.32029,0.557522169263717
0,0,2016-03-03 00:00:00,-133.51878,68.32029,0.6660896051627008
0,0,2016-03-04 00:00:00,-133.51878,68.32029,0.777556943932312
0,0,2016-03-05 00:00:00,-133.51878,68.32029,0.6543284772486176
0,0,2016-03-06 00:00:00,-133.51878,68.32029,0.45321977266981595
0,0,2016-03-07 00:00:00,-133.51878,68.32029,0.8235047630945537
0,0,2016-03-08 00:00:00,-133.51878,68.32029,1.3469454639433085
0,0,2016-03-09 00:00:00,-133.51878,68.32029,4.762431246790316
0,0,2016-03-10 00:00:00,-133.51878,68.32029,5.007419159924673
0,0,2016-03-11 00:00:00,-133.51878,68.32029,7.331114023347744
0,0,2016-03-12 00:00:00,-133.51878,68.32029,6.574853550746479
0,0,2016-03-13 00:00:00,-133.51878,68.32029,4.305297668515613
0,0,2016-03-14 00:00:00,-133.51878,68.32029,6.340828802339815
0,0,2016-03-15 00:00:00,-133.51878,68.32029,7.356228061347789
0,0,2016-03-16 00:00:00,-133.51878,68.32029,7.474196830671569
0,0,2016-03-17 00:00:00,-133.51878,68.32029,7.8439016352629
0,0,2016-03-18 00:00:00,-133.51878,68.32029,5.842704126627471
0,0,2016-03-19 00:00:00,-133.51878,68.32029,2.4147269956482647
0,0,2016-03-20 00:00:00,-133.51878,68.32029,4.105670491086824
0,0,2016-03-21 00:00:00,-133.51878,68.32029,5.439252199287924
0,0,2016-03-22 00:00:00,-133.51878,68.32029,6.212404187574065
0,0,2016-03-23 00:00:00,-133.51878,68.32029,1.2693946084364525
0,0,2016-03-24 00:00:00,-133.51878,68.32029,6.026306713570654
0,0,2016-03-25 00:00:00,-133.51878,68.32029,8.81271574272318
0,0,2016-03-26 00:00:00,-133.51878,68.32029,4.419791758642722
0,0,2016-03-27 00:00:00,-133.51878,68.32029,4.8717531396650635
0,0,2016-03-28 00:00:00,-133.51878,68.32029,4.62987294239721
0,0,2016-03-29 00:00:00,-133.51878,68.32029,5.159091657053978
0,0,2016-03-30 00:00:00,-133.51878,68.32029,7.880869878930516
0,0,2016-03-31 00:00:00,-133.51878,68.32029,7.482022717729225
0,0,2016-04-01 00:00:00,-133.51878,68.32029,7.599503428564265
0,0,2016-04-02 00:00:00,-133.51878,68.32029,8.335275236865666
0,0,2016-04-03 00:00:00,-133.51878,68.32029,8.523758250117583
0,0,2016-04-04 00:00:00,-133.51878,68.32029,10.755613341467978
0,0,2016-04-05 00:00:00,-133.51878,68.32029,11.55910292075039
0,0,2016-04-06 00:00:00,-133.51878,68.32029,15.332318100627461
0,0,2016-04-07 00:00:00,-133.51878,68.32029,10.135574167674335
0,0,2016-04-08 00:00:00,-133.51878,68.32029,7.319604562020909
0,0,2016-04-09 00:00:00,-133.51878,68.32029,7.1502680872724165
0,0,2016-04-10 00:00:00,-133.51878,68.32029,10.83066961846429
0,0,2016-04-11 00:00:00,-133.51878,68.32029,7.327341918277283
0,0,2016-04-12 00:00:00,-133.51878,68.32029,7.528010050418751
0,0,2016-04-13 00:00:00,-133.51878,68.32029,5.717255285694603
0,0,2016-04-14 00:00:00,-133.51878,68.32029,6.039614722224619
0,0,2016-04-15 00:00:00,-133.51878,68.32029,11.891767683240579
0,0,2016-04-16 00:00:00,-133.51878,68.32029,8.349220479714264
0,0,2016-04-17 00:00:00,-133.51878,68.32029,12.671204174300067
0,0,2016-04-18 00:00:00,-133.51878,68.32029,8.230527490336689
0,0,2016-04-19 00:00:00,-133.51878,68.32029,5.122465222535369
0,0,2016-04-20 00:00:00,-133.51878,68.32029,11.378886277240655
0,0,2016-04-21 00:00:00,-133.51878,68.32029,15.543178241720026
0,0,2016-04-22 00:00:00,-133.51878,68.32029,8.932019090239558
0,0,2016-04-23 00:00:00,-133.51878,68.32029,3.830745289689308
0,0,2016-04-24 00:00:00,-133.51878,68.32029,7.184218231454666
0,0,2016-04-25 00:00:00,-133.51878,68.32029,4.491044764477936
0,0,2016-04-26 00:00:00,-133.51878,68.32029,5.3455712074171275
0,0,2016-04-27 00:00:00,-133.51878,68.32029,8.156358044475107
0,0,2016-04-28 00:00:00,-133.51878,68.32029,13.339960433235838
0,0,2016-04-29 00:00:00,-133.51878,68.32029,15.585365809042116
0,0,2016-04-30 00:00:00,-133.51878,68.32029,13.676626429141285
0,0,2016-05-01 00:00:00,-133.51878,68.32029,26.96764131318797
0,0,2016-05-02 00:00:00,-133.51878,68.32029,15.85583481789829
0,0,2016-05-03 00:00:00,-133.51878,68.32029,25.619859326511847
0,0,2016-05-04 00:00:00,-133.51878,68.32029,16.522419969506547
0,0,2016-05-05 00:00:00,-133.51878,68.32029,21.687987251394517
0,0,2016-05-06 00:00:00,-133.51878,68.32029,24.998498676418052
0,0,2016-05-07 00:00:00,-133.51878,68.32029,25.387429387298905
0,0,2016-05-08 00:00:00,-133.51878,68.32029,33.597446836266705
0,0,2016-05-09 00:00:00,-133.51878,68.32029,48.858994052650814
0,0,2016-05-10 00:00:00,-133.51878,68.32029,63.15096413258467
0,0,2016-05-11 00:00:00,-133.51878,68.32029,57.80066826957767
0,0,2016-05-12 00:00:00,-133.51878,68.32029,51.44347330354814
0,0,2016-05-13 00:00:00,-133.51878,68.32029,41.13554505674512
0,0,2016-05-14 00:00:00,-133.51878,68.32029,25.613875088289983
0,0,2016-05-15 00:00:00,-133.51878,68.32029,20.985126586058318
0,0,2016-05-16 00:00:00,-133.51878,68.32029,17.021665838987772
0,0,2016-05-17 00:00:00,-133.51878,68.32029,36.869499739677856
0,0,2016-05-18 00:00:00,-133.51878,68.32029,71.10178735896694
0,0,2016-05-19 00:00:00,-133.51878,68.32029,78.71056929834478
0,0,2016-05-20 00:00:00,-133.51878,68.32029,79.42653521696207
0,0,2016-05-21 00:00:00,-133.51878,68.32029,86.25123748281199
0,0,2016-05-22 00:00:00,-133.51878,68.32029,38.52125265098334
0,0,2016-05-23 00:00:00,-133.51878,68.32029,23.071683252441392
0,0,2016-05-24 00:00:00,-133.51878,68.32029,18.408873039398394
0,0,2016-05-25 00:00:00,-133.51878,68.32029,44.024747255389464
0,0,2016-05-26 00:00:00,-133.51878,68.32029,48.13530654417597
0,0,2016-05-27 00:00:00,-133.51878,68.32029,32.55488254210674
0,0,2016-05-28 00:00:00,-133.51878,68.32029,56.94463876967223
0,0,2016-05-29 00:00:00,-133.51878,68.32029,70.28472814237496
0,0,2016-05-30 00:00:00,-133.51878,68.32029,46.57770822984461
0,0,2016-05-31 00:00:00,-133.51878,68.32029,40.935557890537815
0,0,2016-06-01 00:00:00,-133.51878,68.32029,28.590854980844128
0,0,2016-06-02 00:00:00,-133.51878,68.32029,31.202980434611504
0,0,2016-06-03 00:00:00,-133.51878,68.32029,5.227911930011174
0,0,2016-06-04 00:00:00,-133.51878,68.32029,69.2669240939116
0,0,2016-06-05 00:00:00,-133.51878,68.32029,88.46801952737106
0,0,2016-06-06 00:00:00,-133.51878,68.32029,39.40296970498836
0,0,2016-06-07 00:00:00,-133.51878,68.32029,72.2737754561508
0,0,2016-06-08 00:00:00,-133.51878,68.32029,73.18933778901415
0,0,2016-06-09 00:00:00,-133.51878,68.32029,37.59881998022835
0,0,2016-06-10 00:00:00,-133.51878,68.32029,29.813212015741744
0,0,2016-06-11 00:00:00,-133.51878,68.32029,73.82865096176131
0,0,2016-06-12 00:00:00,-133.51878,68.32029,70.02213972579851
0,0,2016-06-13 00:00:00,-133.51878,68.32029,55.15977173288389
0,0,2016-06-14 00:00:00,-133.51878,68.32029,75.55478500492123
0,0,2016-06-15 00:00:00,-133.51878,68.32029,67.99863641388836
0,0,2016-06-16 00:00:00,-133.51878,68.32029,44.58824821551301
0,0,2016-06-17 00:00:00,-133.51878,68.32029,111.40925683854574
0,0,2016-06-18 00:00:00,-133.51878,68.32029,114.30903022781149
0,0,2016-06-19 00:00:00,-133.51878,68.32029,84.44357827577348
0,0,2016-06-20 00:00:00,-133.51878,68.32029,43.11018022800673
0,0,2016-06-21 00:00:00,-133.51878,68.32029,63.742715218628994
0,0,2016-06-22 00:00:00,-133.51878,68.32029,33.665234788206845
0,0,2016-06-23 00:00:00,-133.51878,68.32029,33.113361329297625
0,0,2016-06-24 00:00:00,-133.51878,68.32029,94.32780478937536
0,0,2016-06-25 00:00:00,-133.51878,68.32029,126.8675926775408
0,0,2016-06-26 00:00:00,-133.51878,68.32029,81.1303076439667
0,0,2016-06-27 00:00:00,-133.51878,68.32029,88.48622361321968
0,0,2016-06-28 00:00:00,-133.51878,68.32029,109.34788346194314
0,0,2016-06-29 00:00:00,-133.51878,68.32029,98.8268298619766
0,0,2016-06-30 00:00:00,-133.51878,68.32029,104.06252546011997
0,0,2016-07-01 00:00:00,-133.51878,68.32029,57.013908040754195
0,0,2016-07-02 00:00:00,-133.51878,68.32029,46.20908334726886
0,0,2016-07-03 00:00:00,-133.51878,68.32029,95.83160793104891
0,0,2016-07-04 00:00:00,-133.51878,68.32029,120.22352599926535
0,0,2016-07-05 00:00:00,-133.51878,68.32029,85.60365971460918
0,0,2016-07-06 00:00:00,-133.51878,68.32029,72.2460421509676
0,0,2016-07-07 00:00:00,-133.51878,68.32029,49.60888144551331
0,0,2016-07-08 00:00:00,-133.51878,68.32029,51.976427269570074
0,0,2016-07-09 00:00:00,-133.51878,68.32029,63.46454573133652
0,0,2016-07-10 00:00:00,-133.51878,68.32029,79.88454132084236
0,0,2016-07-11 00:00:00,-133.51878,68.32029,67.76881826665894
0,0,2016-07-12 00:00:00,-133.51878,68.32029,103.54621484621379
0,0,2016-07-13 00:00:00,-133.51878,68.32029,104.76215229395297
0,0,2016-07-14 00:00:00,-133.51878,68.32029,127.30783566648618
0,0,2016-07-15 00:00:00,-133.51878,68.32029,78.7597483308118
0,0,2016-07-16 00:00:00,-133.51878,68.32029,81.9049905934536
0,0,2016-07-17 00:00:00,-133.51878,68.32029,69.02787834422894
0,0,2016-07-18 00:00:00,-133.51878,68.32029,47.76865296681144
0,0,2016-07-19 00:00:00,-133.51878,68.32029,38.06015487090788
0,0,2016-07-20 00:00:00,-133.51878,68.32029,52.47375434511918
0,0,2016-07-21 00:00:00,-133.51878,68.32029,33.221011117132086
0,0,2016-07-22 00:00:00,-133.51878,68.32029,23.23116495203186
0,0,2016-07-23 00:00:00,-133.51878,68.32029,53.177197306683695
0,0,2016-07-24 00:00:00,-133.51878,68.32029,49.403478747162914
0,0,2016-07-25 00:00:00,-133.51878,68.32029,73.7458598672879
0,0,2016-07-26 00:00:00,-133.51878,68.32029,85.01846528574647
0,0,2016-07-27 00:00:00,-133.51878,68.32029,123.01373718699448
0,0,2016-07-28 00:00:00,-133.51878,68.32029,61.14605940866269
0,0,2016-07-29 00:00:00,-133.51878,68.32029,59.8144309076574
0,0,2016-07-30 00:00:00,-133.51878,68.32029,33.64514710731802
0,0,2016-07-31 00:00:00,-133.51878,68.32029,21.557982082674187
0,0,2016-08-01 00:00:00,-133.51878,68.32029,64.13549873208133
0,0,2016-08-02 00:00:00,-133.51878,68.32029,59.70522513439007
0,0,2016-08-03 00:00:00,-133.51878,68.32029,22.86504993043712
0,0,2016-08-04 00:00:00,-133.51878,68.32029,1.2902178023104025
0,0,2016-08-05 00:00:00,-133.51878,68.32029,45.60661197458385
0,0,2016-08-06 00:00:00,-133.51878,68.32029,30.960490468558543
0,0,2016-08-07 00:00:00,-133.51878,68.32029,80.45147312141366
0,0,2016-08-08 00:00:00,-133.51878,68.32029,70.3767491976991
0,0,2016-08-09 00:00:00,-133.51878,68.32029,54.76052440851876
0,0,2016-08-10 00:00:00,-133.51878,68.32029,16.125848946494962
0,0,2016-08-11 00:00:00,-133.51878,68.32029,22.075415195641497
0,0,2016-08-12 00:00:00,-133.51878,68.32029,17.557995419821314
0,0,2016-08-13 00:00:00,-133.51878,68.32029,35.14291939310561
0,0,2016-08-14 00:00:00,-133.51878,68.32029,22.78018407037094
0,0,2016-08-15 00:00:00,-133.51878,68.32029,26.689440432464053
0,0,2016-08-16 00:00:00,-133.51878,68.32029,21.394883247893485
0,0,2016-08-17 00:00:00,-133.51878,68.32029,3.8841265193587695
0,0,2016-08-18 00:00:00,-133.51878,68.32029,67.85873274533091
0,0,2016-08-19 00:00:00,-133.51878,68.32029,39.50654179793272
0,0,2016-08-20 00:00:00,-133.51878,68.32029,23.32478614976875
0,0,2016-08-21 00:00:00,-133.51878,68.32029,30.936386077679433
0,0,2016-08-22 00:00:00,-133.51878,68.32029,27.486523880968473
0,0,2016-08-23 00:00:00,-133.51878,68.32029,16.512659981359334
0,0,2016-08-24 00:00:00,-133.51878,68.32029,36.15655724776039
0,0,2016-08-25 00:00:00,-133.51878,68.32029,29.96925177395597
0,0,2016-08-26 00:00:00,-133.51878,68.32029,16.29884930509399
0,0,2016-08-27 00:00:00,-133.51878,68.32029,8.605215039113501
0,0,2016-08-28 00:00:00,-133.51878,68.32029,39.787847477082124
0,0,2016-08-29 00:00:00,-133.51878,68.32029,7.259355831465346
0,0,2016-08-30 00:00:00,-133.51878,68.32029,29.032874870819075
0,0,2016-08-31 00:00:00,-133.51878,68.32029,6.697174420989826
0,0,2016-09-01 00:00:00,-133.51878,68.32029,20.168204363630096
0,0,2016-09-02 00:00:00,-133.51878,68.32029,17.15217225293129
0,0,2016-09-03 00:00:00,-133.51878,68.32029,20.274432188330792
0,0,2016-09-04 00:00:00,-133.51878,68.32029,20.322140178722652
0,0,2016-09-05 00:00:00,-133.51878,68.32029,17.881237026391332
0,0,2016-09-06 00:00:00,-133.51878,68.32029,14.669838187626718
0,0,2016-09-07 00:00:00,-133.51878,68.32029,24.03529605984686
0,0,2016-09-08 00:00:00,-133.51878,68.32029,15.549952671243517
0,0,2016-09-09 00:00:00,-133.51878,68.32029,19.554197154063736
0,0,2016-09-10 00:00:00,-133.51878,68.32029,34.76870995127235
0,0,2016-09-11 00:00:00,-133.51878,68.32029,13.449341109947063
0,0,2016-09-12 00:00:00,-133.51878,68.32029,4.779591130552944
0,0,2016-09-13 00:00:00,-133.51878,68.32029,21.074746829566994
0,0,2016-09-14 00:00:00,-133.51878,68.32029,13.945290853238703
0,0,2016-09-15 00:00:00,-133.51878,68.32029,22.973942507723518
0,0,2016-09-16 00:00:00,-133.51878,68.32029,5.365820410015627
0,0,2016-09-17 00:00:00,-133.51878,68.32029,27.61788884930766
0,0,2016-09-18 00:00:00,-133.51878,68.32029,1.8663973157930238
0,0,2016-09-19 00:00:00,-133.51878,68.32029,19.234498881269285
0,0,2016-09-20 00:00:00,-133.51878,68.32029,7.534491475940293
0,0,2016-09-21 00:00:00,-133.51878,68.32029,14.395936900380477
0,0,2016-09-22 00:00:00,-133.51878,68.32029,10.682289406881393
0,0,2016-09-23 00:00:00,-133.51878,68.32029,8.110580016795788
0,0,2016-09-24 00:00:00,-133.51878,68.32029,12.503822231724447
0,0,2016-09-25 00:00:00,-133.51878,68.32029,6.939035608257682
0,0,2016-09-26 00:00:00,-133.51878,68.32029,7.366801953504005
0,0,2016-09-27 00:00:00,-133.51878,68.32029,5.864660228692347
0,0,2016-09-28 00:00:00,-133.51878,68.32029,28.002015009352267
0,0,2016-09-29 00:00:00,-133.51878,68.32029,8.647772790871501
0,0,2016-09-30 00:00:00,-133.51878,68.32029,12.453068080501824
0,0,2016-10-01 00:00:00,-133.51878,68.32029,15.17798098502548
0,0,2016-10-02 00:00:00,-133.51878,68.32029,8.137440925529448
0,0,2016-10-03 00:00:00,-133.51878,68.32029,2.7907640973813073
0,0,2016-10-04 00:00:00,-133.51878,68.32029,3.6448605923618014
0,0,2016-10-05 00:00:00,-133.51878,68.32029,4.028777029735413
0,0,2016-10-06 00:00:00,-133.51878,68.32029,1.5908576266444197
0,0,2016-10-07 00:00:00,-133.51878,68.32029,2.3183938982398247
0,0,2016-10-08 00:00:00,-133.51878,68.32029,2.683924645645583
0,0,2016-10-09 00:00:00,-133.51878,68.32029,2.655741854374919
0,0,2016-10-10 00:00:00,-133.51878,68.32029,2.9787601104180474
0,0,2016-10-11 00:00:00,-133.51878,68.32029,3.3391695408040936
0,0,2016-10-12 00:00:00,-133.51878,68.32029,1.334444535273418
0,0,2016-10-13 00:00:00,-133.51878,68.32029,0.7492521631333199
0,0,2016-10-14 00:00:00,-133.51878,68.32029,0.8081573258706726
0,0,2016-10-15 00:00:00,-133.51878,68.32029,0.7148701224262585
0,0,2016-10-16 00:00:00,-133.51878,68.32029,0.6452124862944559
0,0,2016-10-17 00:00:00,-133.51878,68.32029,0.8716784878392908
0,0,2016-10-18 00:00:00,-133.51878,68.32029,1.037028484289145
0,0,2016-10-19 00:00:00,-133.51878,68.32029,0.6586998599849477
0,0,2016-10-20 00:00:00,-133.51878,68.32029,0.7986273159562423
0,0,2016-10-21 00:00:00,-133.51878,68.32029,0.28503270213789367
0,0,2016-10-22 00:00:00,-133.51878,68.32029,0.8106978901700012
0,0,2016-10-23 00:00:00,-133.51878,68.32029,0.5063872101234582
0,0,2016-10-24 00:00:00,-133.51878,68.32029,1.5476303562454767
0,0,2016-10-25 00:00:00,-133.51878,68.32029,0.4141306620460687
0,0,2016-10-26 00:00:00,-133.51878,68.32029,0.27427714199080294
0,0,2016-10-27 00:00:00,-133.51878,68.32029,0.27935885875021677
0,0,2016-10-28 00:00:00,-133.51878,68.32029,0.6203731798545279
0,0,2016-10-29 00:00:00,-133.51878,68.32029,0.2518404653450857
0,0,2016-10-30 00:00:00,-133.51878,68.32029,-0.007035619215615417
0,0,2016-10-31 00:00:00,-133.51878,68.32029,0.0858101490920493
0,0,2016-11-01 00:00:00,-133.51878,68.32029,0.33559774026225897
0,0,2016-11-02 00:00:00,-133.51878,68.32029,0.32817921618381246
0,0,2016-11-03 00:00:00,-133.51878,68.32029,0.15736156899958273
0,0,2016-11-04 00:00:00,-133.51878,68.32029,0.2528062643086891
0,0,2016-11-05 00:00:00,-133.51878,68.32029,0.4751739644389767
0,0,2016-11-06 00:00:00,-133.51878,68.32029,0.6841392156182797
0,0,2016-11-07 00:00:00,-133.51878,68.32029,1.0899282054639572
0,0,2016-11-08 00:00:00,-133.51878,68.32029,0.5360424209747956
0,0,2016-11-09 00:00:00,-133.51878,68.32029,0.8661248887854702
0,0,2016-11-10 00:00:00,-133.51878,68.32029,1.0381916532282
0,0,2016-11-11 00:00:00,-133.51878,68.32029,1.2917584249125167
0,0,2016-11-12 00:00:00,-133.51878,68.32029,0.8063195160101192
0,0,2016-11-13 00:00:00,-133.51878,68.32029,0.8364761941887208
0,0,2016-11-14 00:00:00,-133.51878,68.32029,0.28903691867165315
0,0,2016-11-15 00:00:00,-133.51878,68.32029,0.4693313423346344
0,0,2016-11-16 00:00:00,-133.51878,68.32029,0.9750653672981154
0,0,2016-11-17 00:00:00,-133.51878,68.32029,1.053810649381193
0,0,2016-11-18 00:00:00,-133.51878,68.32029,0.850339709204493
0,0,2016-11-19 00:00:00,-133.51878,68.32029,0.861755798336679
0,0,2016-11-20 00:00:00,-133.51878,68.32029,0.7425796754828925
0,0,2016-11-21 00:00:00,-133.51878,68.32029,0.8789690426386105
0,0,2016-11-22 00:00:00,-133.51878,68.32029,0.736429038748677
0,0,2016-11-23 00:00:00,-133.51878,68.32029,0.7794915015733412
0,0,2016-11-24 00:00:00,-133.51878,68.32029,0.4777388157099746
0,0,2016-11-25 00:00:00,-133.51878,68.32029,0.781728590790741
0,0,2016-11-26 00:00:00,-133.51878,68.32029,0.9922420370645492
0,0,2016-11-27 00:00:00,-133.51878,68.32029,0.7179989238864825
0,0,2016-11-28 00:00:00,-133.51878,68.32029,0.5396379463115482
0,0,2016-11-29 00:00:00,-133.51878,68.32029,0.7705218191214919
0,0,2016-11-30 00:00:00,-133.51878,68.32029,0.8239291091471362
0,0,2016-12-01 00:00:00,-133.51878,68.32029,1.0686645049123313
0,0,2016-12-02 00:00:00,-133.51878,68.32029,1.3999787688883456
0,0,2016-12-03 00:00:00,-133.51878,68.32029,0.8324133624430455
0,0,2016-12-04 00:00:00,-133.51878,68.32029,1.1622776876686884
0,0,2016-12-05 00:00:00,-133.51878,68.32029,0.6543218361738062
0,0,2016-12-06 00:00:00,-133.51878,68.32029,0.16522566169430217
0,0,2016-12-07 00:00:00,-133.51878,68.32029,0.3610084294660077
0,0,2016-12-08 00:00:00,-133.51878,68.32029,1.6306641464912088
0,0,2016-12-09 00:00:00,-133.51878,68.32029,1.8779022733603987
0,0,2016-12-10 00:00:00,-133.51878,68.32029,0.8008047399114263
0,0,2016-12-11 00:00:00,-133.51878,68.32029,0.34689188855770636
0,0,2016-12-12 00:00:00,-133.51878,68.32029,-0.05495236693863197
0,0,2016-12-13 00:00:00,-133.51878,68.32029,0.3707295297932534
0,0,2016-12-14 00:00:00,-133.51878,68.32029,0.8775257690197377
0,0,2016-12-15 00:00:00,-133.51878,68.32029,1.2075398285732262
0,0,2016-12-16 00:00:00,-133.51878,68.32029,0.47762047873107377
0,0,2016-12-17 00:00:00,-133.51878,68.32029,0.062296752099632695
0,0,2016-12-18 00:00:00,-133.51878,68.32029,-0.0801930550613418
0,0,2016-12-19 00:00:00,-133.51878,68.32029,0.18877164089755546
0,0,2016-12-20 00:00:00,-133.51878,68.32029,0.276643131653152
0,0,2016-12-21 00:00:00,-133.51878,68.32029,0.26883033281801505
0,0,2016-12-22 00:00:00,-133.51878,68.32029,0.20221875734504005
0,0,2016-12-23 00:00:00,-133.51878,68.32029,0.184430996461198
0,0,2016-12-24 00:00:00,-133.51878,68.32029,0.22649910300372014
0,0,2016-12-25 00:00:00,-133.51878,68.32029,-0.022769251755185845
0,0,2016-12-26 00:00:00,-133.51878,68.32029,0.9423289619436265
0,0,2016-12-27 00:00:00,-133.51878,68.32029,1.1540943759053415
0,0,2016-12-28 00:00:00,-133.51878,68.32029,0.1880962196927539
0,0,2016-12-29 00:00:00,-133.51878,68.32029,-0.6678520901236208
0,0,2016-12-30 00:00:00,-133.51878,68.32029,-0.09196274193150204
0,0,2016-12-31 00:00:00,-133.51878,68.32029,0.18640422389218345
0,0,2017-01-01 00:00:00,-133.51878,68.32029,0.2906391993664725
0,0,2017-01-02 00:00:00,-133.51878,68.32029,-0.03190128626906005
0,0,2017-01-03 00:00:00,-133.51878,68.32029,0.17350328134809181
0,0,2017-01-04 00:00:00,-133.51878,68.32029,-1.2433324798586325
0,0,2017-01-05 00:00:00,-133.51878,68.32029,-0.8094276228070515
0,0,2017-01-06 00:00:00,-133.51878,68.32029,-1.358334227384306
0,0,2017-01-07 00:00:00,-133.51878,68.32029,-0.1594810922689041
0,0,2017-01-08 00:00:00,-133.51878,68.32029,-3.2481728697407064
0,0,2017-01-09 00:00:00,-133.51878,68.32029,-0.08602592493919113
0,0,2017-01-10 00:00:00,-133.51878,68.32029,-0.5569586228478843
0,0,2017-01-11 00:00:00,-133.51878,68.32029,0.3930158997244844
0,0,2017-01-12 00:00:00,-133.51878,68.32029,0.5753167317393333
0,0,2017-01-13 00:00:00,-133.51878,68.32029,0.3863691581790781
0,0,2017-01-14 00:00:00,-133.51878,68.32029,0.7873774455884542
0,0,2017-01-15 00:00:00,-133.51878,68.32029,1.0964725789311545
0,0,2017-01-16 00:00:00,-133.51878,68.32029,0.1611146157275607
0,0,2017-01-17 00:00:00,-133.51878,68.32029,0.03035572644416219
0,0,2017-01-18 00:00:00,-133.51878,68.32029,0.026083251220794135
0,0,2017-01-19 00:00:00,-133.51878,68.32029,0.26768533852571946
0,0,2017-01-20 00:00:00,-133.51878,68.32029,0.867489572672385
0,0,2017-01-21 00:00:00,-133.51878,68.32029,1.8479121644750778
0,0,2017-01-22 00:00:00,-133.51878,68.32029,1.7895632698339636
0,0,2017-01-23 00:00:00,-133.51878,68.32029,0.8076963512960001
0,0,2017-01-24 00:00:00,-133.51878,68.32029,0.13683905955876657
0,0,2017-01-25 00:00:00,-133.51878,68.32029,-0.5172669369030188
0,0,2017-01-26 00:00:00,-133.51878,68.32029,0.041418193740748566
0,0,2017-01-27 00:00:00,-133.51878,68.32029,0.6701316274967066
0,0,2017-01-28 00:00:00,-133.51878,68.32029,0.023929918426221077
0,0,2017-01-29 00:00:00,-133.51878,68.32029,-0.2535174578527664
0,0,2017-01-30 00:00:00,-133.51878,68.32029,-0.4521255228102514
0,0,2017-01-31 00:00:00,-133.51878,68.32029,-1.2713011839548813
0,0,2017-02-01 00:00:00,-133.51878,68.32029,-2.5056472933340026
0,0,2017-02-02 00:00:00,-133.51878,68.32029,-2.6584093158137456
0,0,2017-02-03 00:00:00,-133.51878,68.32029,0.06710496210475878
0,0,2017-02-04 00:00:00,-133.51878,68.32029,0.23279644375545708
0,0,2017-02-05 00:00:00,-133.51878,68.32029,2.5192002320474165
0,0,2017-02-06 00:00:00,-133.51878,68.32029,3.135734108597317
0,0,2017-02-07 00:00:00,-133.51878,68.32029,2.451483272518375
0,0,2017-02-08 00:00:00,-133.51878,68.32029,0.9771579651388916
0,0,2017-02-09 00:00:00,-133.51878,68.32029,1.4627470942708882
0,0,2017-02-10 00:00:00,-133.51878,68.32029,1.4685416740698551
0,0,2017-02-11 00:00:00,-133.51878,68.32029,0.553215521210415
0,0,2017-02-12 00:00:00,-133.51878,68.32029,0.03405049264971215
0,0,2017-02-13 00:00:00,-133.51878,68.32029,1.11119791286631
0,0,2017-02-14 00:00:00,-133.51878,68.32029,4.627831519503791
0,0,2017-02-15 00:00:00,-133.51878,68.32029,2.943922014545246
0,0,2017-02-16 00:00:00,-133.51878,68.32029,0.6263750855318648
0,0,2017-02-17 00:00:00,-133.51878,68.32029,0.62506783031752
0,0,2017-02-18 00:00:00,-133.51878,68.32029,3.7096408987920113
0,0,2017-02-19 00:00:00,-133.51878,68.32029,6.375359184258051
0,0,2017-02-20 00:00:00,-133.51878,68.32029,3.2395268746550676
0,0,2017-02-21 00:00:00,-133.51878,68.32029,0.0789103789503464
0,0,2017-02-22 00:00:00,-133.51878,68.32029,0.4764697965981854
0,0,2017-02-23 00:00:00,-133.51878,68.32029,2.157193071182215
0,0,2017-02-24 00:00:00,-133.51878,68.32029,4.20618051951409
0,0,2017-02-25 00:00:00,-133.51878,68.32029,2.123339410436307
0,0,2017-02-26 00:00:00,-133.51878,68.32029,1.6290929404564618
0,0,2017-02-27 00:00:00,-133.51878,68.32029,3.2421253276817943
0,0,2017-02-28 00:00:00,-133.51878,68.32029,1.509583736225352
0,0,2017-03-01 00:00:00,-133.51878,68.32029,7.382163949445531
0,0,2017-03-02 00:00:00,-133.51878,68.32029,5.906490157956074
0,0,2017-03-03 00:00:00,-133.51878,68.32029,4.452872681234508
0,0,2017-03-04 00:00:00,-133.51878,68.32029,6.217959484247974
0,0,2017-03-05 00:00:00,-133.51878,68.32029,5.686483556222193
0,0,2017-03-06 00:00:00,-133.51878,68.32029,1.1548821382327499
0,0,2017-03-07 00:00:00,-133.51878,68.32029,0.03597825537010411
0,0,2017-03-08 00:00:00,-133.51878,68.32029,3.295696490685936
0,0,2017-03-09 00:00:00,-133.51878,68.32029,1.387252561089472
0,0,2017-03-10 00:00:00,-133.51878,68.32029,0.7330259855281258
0,0,2017-03-11 00:00:00,-133.51878,68.32029,4.335752413071174
0,0,2017-03-12 00:00:00,-133.51878,68.32029,3.1709380363505613
0,0,2017-03-13 00:00:00,-133.51878,68.32029,0.18314640928593806
0,0,2017-03-14 00:00:00,-133.51878,68.32029,0.40538482432577844
0,0,2017-03-15 00:00:00,-133.51878,68.32029,0.2623329157951962
0,0,2017-03-16 00:00:00,-133.51878,68.32029,1.6670072518479258
0,0,2017-03-17 00:00:00,-133.51878,68.32029,2.45718372753442
0,0,2017-03-18 00:00:00,-133.51878,68.32029,2.1773347522566495
0,0,2017-03-19 00:00:00,-133.51878,68.32029,2.1528003452523916
0,0,2017-03-20 00:00:00,-133.51878,68.32029,3.111678232983485
0,0,2017-03-21 00:00:00,-133.51878,68.32029,5.587362017202719
0,0,2017-03-22 00:00:00,-133.51878,68.32029,9.219397212896633
0,0,2017-03-23 00:00:00,-133.51878,68.32029,4.526790544924968
0,0,2017-03-24 00:00:00,-133.51878,68.32029,0.2675114143876766
0,0,2017-03-25 00:00:00,-133.51878,68.32029,4.20945325510218
0,0,2017-03-26 00:00:00,-133.51878,68.32029,4.777306634989682
0,0,2017-03-27 00:00:00,-133.51878,68.32029,4.15903663136826
0,0,2017-03-28 00:00:00,-133.51878,68.32029,4.1108267390777415
0,0,2017-03-29 00:00:00,-133.51878,68.32029,6.385597298194228
0,0,2017-03-30 00:00:00,-133.51878,68.32029,10.526255498694754
0,0,2017-03-31 00:00:00,-133.51878,68.32029,8.05777251002859
0,0,2017-04-01 00:00:00,-133.51878,68.32029,9.267762601446876
0,0,2017-04-02 00:00:00,-133.51878,68.32029,11.493831219752472
0,0,2017-04-03 00:00:00,-133.51878,68.32029,15.678347836244576
0,0,2017-04-04 00:00:00,-133.51878,68.32029,5.503646026102626
0,0,2017-04-05 00:00:00,-133.51878,68.32029,5.567306123179986
0,0,2017-04-06 00:00:00,-133.51878,68.32029,7.657291243268497
0,0,2017-04-07 00:00:00,-133.51878,68.32029,5.153923648455168
0,0,2017-04-08 00:00:00,-133.51878,68.32029,5.254075627206743
0,0,2017-04-09 00:00:00,-133.51878,68.32029,10.95407299593399
0,0,2017-04-10 00:00:00,-133.51878,68.32029,10.098509183507165
0,0,2017-04-11 00:00:00,-133.51878,68.32029,9.852955565732609
0,0,2017-04-12 00:00:00,-133.51878,68.32029,15.213090923811528
0,0,2017-04-13 00:00:00,-133.51878,68.32029,10.302897091594971
0,0,2017-04-14 00:00:00,-133.51878,68.32029,7.3561498359074555
0,0,2017-04-15 00:00:00,-133.51878,68.32029,6.739711455689858
0,0,2017-04-16 00:00:00,-133.51878,68.32029,9.212816511834975
0,0,2017-04-17 00:00:00,-133.51878,68.32029,11.780880651882812
0,0,2017-04-18 00:00:00,-133.51878,68.32029,11.316077696826559
0,0,2017-04-19 00:00:00,-133.51878,68.32029,1.6174098065283833
0,0,2017-04-20 00:00:00,-133.51878,68.32029,7.0784720522399835
0,0,2017-04-21 00:00:00,-133.51878,68.32029,11.508490112900622
0,0,2017-04-22 00:00:00,-133.51878,68.32029,10.591618157090261
0,0,2017-04-23 00:00:00,-133.51878,68.32029,11.863298656306414
0,0,2017-04-24 00:00:00,-133.51878,68.32029,13.951052009256806
0,0,2017-04-25 00:00:00,-133.51878,68.32029,12.011251863755193
0,0,2017-04-26 00:00:00,-133.51878,68.32029,11.057948659588924
0,0,2017-04-27 00:00:00,-133.51878,68.32029,11.6333525358287
0,0,2017-04-28 00:00:00,-133.51878,68.32029,7.680227295873801
0,0,2017-04-29 00:00:00,-133.51878,68.32029,8.09909966373438
0,0,2017-04-30 00:00:00,-133.51878,68.32029,3.3194038925262244
0,0,2017-05-01 00:00:00,-133.51878,68.32029,6.625816975904986
0,0,2017-05-02 00:00:00,-133.51878,68.32029,8.13044691809796
0,0,2017-05-03 00:00:00,-133.51878,68.32029,16.169983863677768
0,0,2017-05-04 00:00:00,-133.51878,68.32029,7.388157705653328
0,0,2017-05-05 00:00:00,-133.51878,68.32029,3.9955224938883114
0,0,2017-05-06 00:00:00,-133.51878,68.32029,12.37861811016946
0,0,2017-05-07 00:00:00,-133.51878,68.32029,17.24744682483353
0,0,2017-05-08 00:00:00,-133.51878,68.32029,18.82085690707687
0,0,2017-05-09 00:00:00,-133.51878,68.32029,16.624010970730513
0,0,2017-05-10 00:00:00,-133.51878,68.32029,9.653966772809195
0,0,2017-05-11 00:00:00,-133.51878,68.32029,11.681564012144484
0,0,2017-05-12 00:00:00,-133.51878,68.32029,18.30730840834702
0,0,2017-05-13 00:00:00,-133.51878,68.32029,23.45470653194175
0,0,2017-05-14 00:00:00,-133.51878,68.32029,30.962849909179806
0,0,2017-05-15 00:00:00,-133.51878,68.32029,49.993678725039395
0,0,2017-05-16 00:00:00,-133.51878,68.32029,70.58082275563314
0,0,2017-05-17 00:00:00,-133.51878,68.32029,70.62735331253442
0,0,2017-05-18 00:00:00,-133.51878,68.32029,51.28817015299839
0,0,2017-05-19 00:00:00,-133.51878,68.32029,53.972035952918986
0,0,2017-05-20 00:00:00,-133.51878,68.32029,48.31021499509183
0,0,2017-05-21 00:00:00,-133.51878,68.32029,82.09982366808104
0,0,2017-05-22 00:00:00,-133.51878,68.32029,9.077186870435346
0,0,2017-05-23 00:00:00,-133.51878,68.32029,21.892782092566677
0,0,2017-05-24 00:00:00,-133.51878,68.32029,76.01988742827105
0,0,2017-05-25 00:00:00,-133.51878,68.32029,35.41003113392751
0,0,2017-05-26 00:00:00,-133.51878,68.32029,7.329931999851252
0,0,2017-05-27 00:00:00,-133.51878,68.32029,74.70575810493398
0,0,2017-05-28 00:00:00,-133.51878,68.32029,86.5781472720376
0,0,2017-05-29 00:00:00,-133.51878,68.32029,39.110098186171435
0,0,2017-05-30 00:00:00,-133.51878,68.32029,78.2423370231816
0,0,2017-05-31 00:00:00,-133.51878,68.32029,23.95992711400852
0,0,2017-06-01 00:00:00,-133.51878,68.32029,47.12816248746421
0,0,2017-06-02 00:00:00,-133.51878,68.32029,72.00718573420507
0,0,2017-06-03 00:00:00,-133.51878,68.32029,82.45161068867326
0,0,2017-06-04 00:00:00,-133.51878,68.32029,66.95727556455175
0,0,2017-06-05 00:00:00,-133.51878,68.32029,62.146795173625655
0,0,2017-06-06 00:00:00,-133.51878,68.32029,61.5784755124452
0,0,2017-06-07 00:00:00,-133.51878,68.32029,100.13529486088538
0,0,2017-06-08 00:00:00,-133.51878,68.32029,64.12722647294396
0,0,2017-06-09 00:00:00,-133.51878,68.32029,45.4958648877014
0,0,2017-06-10 00:00:00,-133.51878,68.32029,57.87668691710232
0,0,2017-06-11 00:00:00,-133.51878,68.32029,49.29012687167614
0,0,2017-06-12 00:00:00,-133.51878,68.32029,43.30499550447815
0,0,2017-06-13 00:00:00,-133.51878,68.32029,70.79671897009193
0,0,2017-06-14 00:00:00,-133.51878,68.32029,110.18449667427262
0,0,2017-06-15 00:00:00,-133.51878,68.32029,98.8370461182264
0,0,2017-06-16 00:00:00,-133.51878,68.32029,106.01550665776017
0,0,2017-06-17 00:00:00,-133.51878,68.32029,91.85863465600134
0,0,2017-06-18 00:00:00,-133.51878,68.32029,70.07919020677043
0,0,2017-06-19 00:00:00,-133.51878,68.32029,102.9395835557077
0,0,2017-06-20 00:00:00,-133.51878,68.32029,87.8511904439164
0,0,2017-06-21 00:00:00,-133.51878,68.32029,80.13449115146754
0,0,2017-06-22 00:00:00,-133.51878,68.32029,108.65577221492475
0,0,2017-06-23 00:00:00,-133.51878,68.32029,108.65665786465257
0,0,2017-06-24 00:00:00,-133.51878,68.32029,107.91876926553078
0,0,2017-06-25 00:00:00,-133.51878,68.32029,46.23437046007465
0,0,2017-06-26 00:00:00,-133.51878,68.32029,17.997683072489394
0,0,2017-06-27 00:00:00,-133.51878,68.32029,8.77864481676627
0,0,2017-06-28 00:00:00,-133.51878,68.32029,74.98491548150615
0,0,2017-06-29 00:00:00,-133.51878,68.32029,121.59870973874747
0,0,2017-06-30 00:00:00,-133.51878,68.32029,132.32460353766035
0,0,2017-07-01 00:00:00,-133.51878,68.32029,108.18255040107785
0,0,2017-07-02 00:00:00,-133.51878,68.32029,91.72865280539118
0,0,2017-07-03 00:00:00,-133.51878,68.32029,31.246618427049782
0,0,2017-07-04 00:00:00,-133.51878,68.32029,84.85480187954
0,0,2017-07-05 00:00:00,-133.51878,68.32029,114.21131533207289
0,0,2017-07-06 00:00:00,-133.51878,68.32029,101.6353802094467
0,0,2017-07-07 00:00:00,-133.51878,68.32029,93.38990371797007
0,0,2017-07-08 00:00:00,-133.51878,68.32029,63.966220762947046
0,0,2017-07-09 00:00:00,-133.51878,68.32029,100.2074230668145
0,0,2017-07-10 00:00:00,-133.51878,68.32029,84.37033958436946
0,0,2017-07-11 00:00:00,-133.51878,68.32029,86.66760943407866
0,0,2017-07-12 00:00:00,-133.51878,68.32029,105.37853107146942
0,0,2017-07-13 00:00:00,-133.51878,68.32029,113.68468165752567
0,0,2017-07-14 00:00:00,-133.51878,68.32029,88.56862304768315
0,0,2017-07-15 00:00:00,-133.51878,68.32029,24.441727594910343
0,0,2017-07-16 00:00:00,-133.51878,68.32029,92.7271594910717
0,0,2017-07-17 00:00:00,-133.51878,68.32029,84.2148753410785
0,0,2017-07-18 00:00:00,-133.51878,68.32029,102.9236870430397
0,0,2017-07-19 00:00:00,-133.51878,68.32029,91.47717127105034
0,0,2017-07-20 00:00:00,-133.51878,68.32029,53.649219747034124
0,0,2017-07-21 00:00:00,-133.51878,68.32029,36.52766075461883
0,0,2017-07-22 00:00:00,-133.51878,68.32029,89.04267850503804
0,0,2017-07-23 00:00:00,-133.51878,68.32029,59.55618368385808
0,0,2017-07-24 00:00:00,-133.51878,68.32029,20.673429225935916
0,0,2017-07-25 00:00:00,-133.51878,68.32029,34.05362853905775
0,0,2017-07-26 00:00:00,-133.51878,68.32029,69.9926042403065
0,0,2017-07-27 00:00:00,-133.51878,68.32029,91.26592952891035
0,0,2017-07-28 00:00:00,-133.51878,68.32029,93.6417238707275
0,0,2017-07-29 00:00:00,-133.51878,68.32029,64.45548490187868
0,0,2017-07-30 00:00:00,-133.51878,68.32029,75.7165417391271
0,0,2017-07-31 00:00:00,-133.51878,68.32029,72.27277469149858
0,0,2017-08-01 00:00:00,-133.51878,68.32029,80.07569382940518
0,0,2017-08-02 00:00:00,-133.51878,68.32029,80.27242887850473
0,0,2017-08-03 00:00:00,-133.51878,68.32029,39.35438085626766
0,0,2017-08-04 00:00:00,-133.51878,68.32029,11.186125888720854
0,0,2017-08-05 00:00:00,-133.51878,68.32029,57.27825817722379
0,0,2017-08-06 00:00:00,-133.51878,68.32029,78.26397562742939
0,0,2017-08-07 00:00:00,-133.51878,68.32029,88.62757177828735
0,0,2017-08-08 00:00:00,-133.51878,68.32029,52.78551544983029
0,0,2017-08-09 00:00:00,-133.51878,68.32029,50.6851287367465
0,0,2017-08-10 00:00:00,-133.51878,68.32029,56.995335898030106
0,0,2017-08-11 00:00:00,-133.51878,68.32029,32.74938622012531
0,0,2017-08-12 00:00:00,-133.51878,68.32029,48.68761407378128
0,0,2017-08-13 00:00:00,-133.51878,68.32029,27.04671583160824
0,0,2017-08-14 00:00:00,-133.51878,68.32029,4.078554877590416
0,0,2017-08-15 00:00:00,-133.51878,68.32029,39.56590728235479
0,0,2017-08-16 00:00:00,-133.51878,68.32029,50.19471063720743
0,0,2017-08-17 00:00:00,-133.51878,68.32029,46.06388923163515
0,0,2017-08-18 00:00:00,-133.51878,68.32029,39.58826095881242
0,0,2017-08-19 00:00:00,-133.51878,68.32029,40.452642784940295
0,0,2017-08-20 00:00:00,-133.51878,68.32029,34.55872219138343
0,0,2017-08-21 00:00:00,-133.51878,68.32029,41.79906829178253
0,0,2017-08-22 00:00:00,-133.51878,68.32029,27.724279506244343
0,0,2017-08-23 00:00:00,-133.51878,68.32029,28.69016375366004
0,0,2017-08-24 00:00:00,-133.51878,68.32029,23.35623133354569
0,0,2017-08-25 00:00:00,-133.51878,68.32029,40.99640406212256
0,0,2017-08-26 00:00:00,-133.51878,68.32029,14.53998170651579
0,0,2017-08-27 00:00:00,-133.51878,68.32029,16.828846094991295
0,0,2017-08-28 00:00:00,-133.51878,68.32029,26.41088666713436
0,0,2017-08-29 00:00:00,-133.51878,68.32029,28.133022257542354
0,0,2017-08-30 00:00:00,-133.51878,68.32029,15.413667961809752
0,0,2017-08-31 00:00:00,-133.51878,68.32029,17.76644438897611
0,0,2017-09-01 00:00:00,-133.51878,68.32029,13.973480369287538
0,0,2017-09-02 00:00:00,-133.51878,68.32029,8.072622531847575
0,0,2017-09-03 00:00:00,-133.51878,68.32029,13.86180319591098
0,0,2017-09-04 00:00:00,-133.51878,68.32029,13.633551280379356
0,0,2017-09-05 00:00:00,-133.51878,68.32029,35.37295225942491
0,0,2017-09-06 00:00:00,-133.51878,68.32029,5.435364661404081
0,0,2017-09-07 00:00:00,-133.51878,68.32029,6.775292736392019
0,0,2017-09-08 00:00:00,-133.51878,68.32029,7.941661993359407
0,0,2017-09-09 00:00:00,-133.51878,68.32029,6.080614610719549
0,0,2017-09-10 00:00:00,-133.51878,68.32029,23.62249274452333
0,0,2017-09-11 00:00:00,-133.51878,68.32029,6.825235420260433
0,0,2017-09-12 00:00:00,-133.51878,68.32029,19.072281419623824
0,0,2017-09-13 00:00:00,-133.51878,68.32029,15.48392377885112
0,0,2017-09-14 00:00:00,-133.51878,68.32029,17.87594786302815
0,0,2017-09-15 00:00:00,-133.51878,68.32029,6.365202016138723
0,0,2017-09-16 00:00:00,-133.51878,68.32029,8.576859265835637
0,0,2017-09-17 00:00:00,-133.51878,68.32029,16.13706249096945
0,0,2017-09-18 00:00:00,-133.51878,68.32029,12.858117834340716
0,0,2017-09-19 00:00:00,-133.51878,68.32029,44.612210924701856
0,0,2017-09-20 00:00:00,-133.51878,68.32029,9.815412262773483
0,0,2017-09-21 00:00:00,-133.51878,68.32029,5.938510610893862
0,0,2017-09-22 00:00:00,-133.51878,68.32029,9.906434222788295
0,0,2017-09-23 00:00:00,-133.51878,68.32029,9.558787058670353
0,0,2017-09-24 00:00:00,-133.51878,68.32029,8.61912821296151
0,0,2017-09-25 00:00:00,-133.51878,68.32029,8.85472886955993
0,0,2017-09-26 00:00:00,-133.51878,68.32029,14.147046585548521
0,0,2017-09-27 00:00:00,-133.51878,68.32029,19.754525228269102
0,0,2017-09-28 00:00:00,-133.51878,68.32029,10.819758177006122
0,0,2017-09-29 00:00:00,-133.51878,68.32029,1.8723672637821467
0,0,2017-09-30 00:00:00,-133.51878,68.32029,15.99461055150752
0,0,2017-10-01 00:00:00,-133.51878,68.32029,5.830340510250089
0,0,2017-10-02 00:00:00,-133.51878,68.32029,2.3819723363208087
0,0,2017-10-03 00:00:00,-133.51878,68.32029,1.2009146854236465
0,0,2017-10-04 00:00:00,-133.51878,68.32029,5.639002013838677
0,0,2017-10-05 00:00:00,-133.51878,68.32029,11.347993150277441
0,0,2017-10-06 00:00:00,-133.51878,68.32029,14.837038746186765
0,0,2017-10-07 00:00:00,-133.51878,68.32029,9.622519552608091
0,0,2017-10-08 00:00:00,-133.51878,68.32029,4.876632248602951
0,0,2017-10-09 00:00:00,-133.51878,68.32029,2.2912869189934137
0,0,2017-10-10 00:00:00,-133.51878,68.32029,14.87081826421157
0,0,2017-10-11 00:00:00,-133.51878,68.32029,1.361249012930652
0,0,2017-10-12 00:00:00,-133.51878,68.32029,2.12332367333055
0,0,2017-10-13 00:00:00,-133.51878,68.32029,1.0983641771039618
0,0,2017-10-14 00:00:00,-133.51878,68.32029,1.5918370195112048
0,0,2017-10-15 00:00:00,-133.51878,68.32029,0.9863023486167734
0,0,2017-10-16 00:00:00,-133.51878,68.32029,0.9719395884610779
0,0,2017-10-17 00:00:00,-133.51878,68.32029,0.2277130984632515
0,0,2017-10-18 00:00:00,-133.51878,68.32029,1.5546473806972418
0,0,2017-10-19 00:00:00,-133.51878,68.32029,0.9653244091878688
0,0,2017-10-20 00:00:00,-133.51878,68.32029,0.8792478327775034
0,0,2017-10-21 00:00:00,-133.51878,68.32029,1.2539340215552224
0,0,2017-10-22 00:00:00,-133.51878,68.32029,0.4197962852603034
0,0,2017-10-23 00:00:00,-133.51878,68.32029,1.1238695301876958
0,0,2017-10-24 00:00:00,-133.51878,68.32029,0.6707099615795582
0,0,2017-10-25 00:00:00,-133.51878,68.32029,0.5506600202066857
0,0,2017-10-26 00:00:00,-133.51878,68.32029,0.8572237899380006
0,0,2017-10-27 00:00:00,-133.51878,68.32029,1.1076548796776733
0,0,2017-10-28 00:00:00,-133.51878,68.32029,1.0340262654592256
0,0,2017-10-29 00:00:00,-133.51878,68.32029,3.702279484054999
0,0,2017-10-30 00:00:00,-133.51878,68.32029,0.5729098207481665
0,0,2017-10-31 00:00:00,-133.51878,68.32029,1.2447942626790371
0,0,2017-11-01 00:00:00,-133.51878,68.32029,1.0168670255839498
0,0,2017-11-02 00:00:00,-133.51878,68.32029,8.384256821824078
0,0,2017-11-03 00:00:00,-133.51878,68.32029,0.961551434302995
0,0,2017-11-04 00:00:00,-133.51878,68.32029,0.42724503260092833
0,0,2017-11-05 00:00:00,-133.51878,68.32029,0.3247366956287823
0,0,2017-11-06 00:00:00,-133.51878,68.32029,-0.11501754098324872
0,0,2017-11-07 00:00:00,-133.51878,68.32029,1.3077201959698397
0,0,2017-11-08 00:00:00,-133.51878,68.32029,0.1012714989314219
0,0,2017-11-09 00:00:00,-133.51878,68.32029,1.6777073624499195
0,0,2017-11-10 00:00:00,-133.51878,68.32029,2.3236435462298903
0,0,2017-11-11 00:00:00,-133.51878,68.32029,0.8590555245162258
0,0,2017-11-12 00:00:00,-133.51878,68.32029,0.5941564338562756
0,0,2017-11-13 00:00:00,-133.51878,68.32029,0.08073414133792946
0,0,2017-11-14 00:00:00,-133.51878,68.32029,0.3727831136960397
0,0,2017-11-15 00:00:00,-133.51878,68.32029,0.5576506580618596
0,0,2017-11-16 00:00:00,-133.51878,68.32029,0.41756517237955676
0,0,2017-11-17 00:00:00,-133.51878,68.32029,0.9861876927571954
0,0,2017-11-18 00:00:00,-133.51878,68.32029,0.6853650671543042
0,0,2017-11-19 00:00:00,-133.51878,68.32029,0.534201781987794
0,0,2017-11-20 00:00:00,-133.51878,68.32029,0.8589610976719384
0,0,2017-11-21 00:00:00,-133.51878,68.32029,0.7780493467620185
0,0,2017-11-22 00:00:00,-133.51878,68.32029,0.4609023382156702
0,0,2017-11-23 00:00:00,-133.51878,68.32029,0.3338654158142265
0,0,2017-11-24 00:00:00,-133.51878,68.32029,0.6633099597250146
0,0,2017-11-25 00:00:00,-133.51878,68.32029,0.2660399715777629
0,0,2017-11-26 00:00:00,-133.51878,68.32029,0.164579561142548
0,0,2017-11-27 00:00:00,-133.51878,68.32029,0.21329051467106352
0,0,2017-11-28 00:00:00,-133.51878,68.32029,0.23376013889229777
0,0,2017-11-29 00:00:00,-133.51878,68.32029,0.7856187980537848
0,0,2017-11-30 00:00:00,-133.51878,68.32029,0.12172145512257813
0,0,2017-12-01 00:00:00,-133.51878,68.32029,0.492102441928626
0,0,2017-12-02 00:00:00,-133.51878,68.32029,1.038738460233505
0,0,2017-12-03 00:00:00,-133.51878,68.32029,0.4221075440635682
0,0,2017-12-04 00:00:00,-133.51878,68.32029,0.379160533273676
0,0,2017-12-05 00:00:00,-133.51878,68.32029,0.14452351428287413
0,0,2017-12-06 00:00:00,-133.51878,68.32029,-0.12796327066770177
0,0,2017-12-07 00:00:00,-133.51878,68.32029,-0.23392707079062872
0,0,2017-12-08 00:00:00,-133.51878,68.32029,3.034328234313419
0,0,2017-12-09 00:00:00,-133.51878,68.32029,1.9858796177053533
0,0,2017-12-10 00:00:00,-133.51878,68.32029,-0.02304536417006345
0,0,2017-12-11 00:00:00,-133.51878,68.32029,1.6230011237099078
0,0,2017-12-12 00:00:00,-133.51878,68.32029,0.9172482173282527
0,0,2017-12-13 00:00:00,-133.51878,68.32029,2.2118487254418406
0,0,2017-12-14 00:00:00,-133.51878,68.32029,1.4858653072482315
0,0,2017-12-15 00:00:00,-133.51878,68.32029,0.7425870832789259
0,0,2017-12-16 00:00:00,-133.51878,68.32029,0.03273403198105238
0,0,2017-12-17 00:00:00,-133.51878,68.32029,0.48471029913791536
0,0,2017-12-18 00:00:00,-133.51878,68.32029,-0.20586703229033665
0,0,2017-12-19 00:00:00,-133.51878,68.32029,-0.27046706869540377
0,0,2017-12-20 00:00:00,-133.51878,68.32029,-0.5387900640818103
0,0,2017-12-21 00:00:00,-133.51878,68.32029,-0.9556168745715591
0,0,2017-12-22 00:00:00,-133.51878,68.32029,-0.9048356778308942
0,0,2017-12-23 00:00:00,-133.51878,68.32029,0.8890323744226613
0,0,2017-12-24 00:00:00,-133.51878,68.32029,0.5843556334267735
0,0,2017-12-25 00:00:00,-133.51878,68.32029,0.12499238564732246
0,0,2017-12-26 00:00:00,-133.51878,68.32029,0.16158635492341172
0,0,2017-12-27 00:00:00,-133.51878,68.32029,0.10695104946669004
0,0,2017-12-28 00:00:00,-133.51878,68.32029,0.07016979672321255
0,0,2017-12-29 00:00:00,-133.51878,68.32029,0.11886482981345008
0,0,2017-12-30 00:00:00,-133.51878,68.32029,0.09285290463425243
0,0,2017-12-31 00:00:00,-133.51878,68.32029,-0.059071550383442535
0,0,2018-01-01 00:00:00,-133.51878,68.32029,-0.34122717398786223
0,0,2018-01-02 00:00:00,-133.51878,68.32029,-0.04776303389455023
0,0,2018-01-03 00:00:00,-133.51878,68.32029,0.05940698402027505
0,0,2018-01-04 00:00:00,-133.51878,68.32029,0.08431516747536029
0,0,2018-01-05 00:00:00,-133.51878,68.32029,-0.030506724434128694
0,0,2018-01-06 00:00:00,-133.51878,68.32029,0.04236001293881395
0,0,2018-01-07 00:00:00,-133.51878,68.32029,0.07799012169596592
0,0,2018-01-08 00:00:00,-133.51878,68.32029,0.050524252863641726
0,0,2018-01-09 00:00:00,-133.51878,68.32029,0.01989896490558841
0,0,2018-01-10 00:00:00,-133.51878,68.32029,0.09738025331872928
0,0,2018-01-11 00:00:00,-133.51878,68.32029,0.04803635881081105
0,0,2018-01-12 00:00:00,-133.51878,68.32029,0.7626159339093682
0,0,2018-01-13 00:00:00,-133.51878,68.32029,0.1282711122173203
0,0,2018-01-14 00:00:00,-133.51878,68.32029,-0.23176696336970481
0,0,2018-01-15 00:00:00,-133.51878,68.32029,0.7849364485285162
0,0,2018-01-16 00:00:00,-133.51878,68.32029,1.1479170759949515
0,0,2018-01-17 00:00:00,-133.51878,68.32029,-0.03783240749680846
0,0,2018-01-18 00:00:00,-133.51878,68.32029,1.5832778547253037
0,0,2018-01-19 00:00:00,-133.51878,68.32029,0.5824969333563407
0,0,2018-01-20 00:00:00,-133.51878,68.32029,-0.01602862956611333
0,0,2018-01-21 00:00:00,-133.51878,68.32029,0.04534741425454628
0,0,2018-01-22 00:00:00,-133.51878,68.32029,1.4948870255027027
0,0,2018-01-23 00:00:00,-133.51878,68.32029,2.4594964703575144
0,0,2018-01-24 00:00:00,-133.51878,68.32029,0.3629853644402216
0,0,2018-01-25 00:00:00,-133.51878,68.32029,0.002542439969335467
0,0,2018-01-26 00:00:00,-133.51878,68.32029,0.04031573389809467
0,0,2018-01-27 00:00:00,-133.51878,68.32029,-0.017965945187955346
0,0,2018-01-28 00:00:00,-133.51878,68.32029,0.04562846914201176
0,0,2018-01-29 00:00:00,-133.51878,68.32029,0.2020726878348111
0,0,2018-01-30 00:00:00,-133.51878,68.32029,0.2851321864366519
0,0,2018-01-31 00:00:00,-133.51878,68.32029,-0.07269078343294473
0,0,2018-02-01 00:00:00,-133.51878,68.32029,0.08804105910469388
0,0,2018-02-02 00:00:00,-133.51878,68.32029,0.976778458974226
0,0,2018-02-03 00:00:00,-133.51878,68.32029,0.20814289386462767
0,0,2018-02-04 00:00:00,-133.51878,68.32029,-0.2738668249655991
0,0,2018-02-05 00:00:00,-133.51878,68.32029,-0.02173080632205467
0,0,2018-02-06 00:00:00,-133.51878,68.32029,0.3566634308440088
0,0,2018-02-07 00:00:00,-133.51878,68.32029,4.681972181675936
0,0,2018-02-08 00:00:00,-133.51878,68.32029,2.497407813457446
0,0,2018-02-09 00:00:00,-133.51878,68.32029,2.297577968210413
0,0,2018-02-10 00:00:00,-133.51878,68.32029,5.0555119002926965
0,0,2018-02-11 00:00:00,-133.51878,68.32029,1.8137596280493626
0,0,2018-02-12 00:00:00,-133.51878,68.32029,1.097299384775692
0,0,2018-02-13 00:00:00,-133.51878,68.32029,0.1219666217770512
0,0,2018-02-14 00:00:00,-133.51878,68.32029,2.394377814655775
0,0,2018-02-15 00:00:00,-133.51878,68.32029,2.300181723682583
0,0,2018-02-16 00:00:00,-133.51878,68.32029,1.5288051001570064
0,0,2018-02-17 00:00:00,-133.51878,68.32029,2.3270280890590067
0,0,2018-02-18 00:00:00,-133.51878,68.32029,3.3146985170166516
0,0,2018-02-19 00:00:00,-133.51878,68.32029,2.7721110008423313
0,0,2018-02-20 00:00:00,-133.51878,68.32029,8.403238237733504
0,0,2018-02-21 00:00:00,-133.51878,68.32029,3.6499263011333873
0,0,2018-02-22 00:00:00,-133.51878,68.32029,8.451972017016184
0,0,2018-02-23 00:00:00,-133.51878,68.32029,4.965479249819112
0,0,2018-02-24 00:00:00,-133.51878,68.32029,3.301755339964544
0,0,2018-02-25 00:00:00,-133.51878,68.32029,3.35209887804822
0,0,2018-02-26 00:00:00,-133.51878,68.32029,0.17518530910105165
0,0,2018-02-27 00:00:00,-133.51878,68.32029,0.16371181121757292
0,0,2018-02-28 00:00:00,-133.51878,68.32029,0.25066968572538195
0,0,2018-03-01 00:00:00,-133.51878,68.32029,4.661362359704168
0,0,2018-03-02 00:00:00,-133.51878,68.32029,6.446670230751402
0,0,2018-03-03 00:00:00,-133.51878,68.32029,0.6712372271357608
0,0,2018-03-04 00:00:00,-133.51878,68.32029,3.761185056472169
0,0,2018-03-05 00:00:00,-133.51878,68.32029,2.365877450208036
0,0,2018-03-06 00:00:00,-133.51878,68.32029,0.3772915831292962
0,0,2018-03-07 00:00:00,-133.51878,68.32029,2.574314839649483
0,0,2018-03-08 00:00:00,-133.51878,68.32029,9.306423380093493
0,0,2018-03-09 00:00:00,-133.51878,68.32029,2.818876369489931
0,0,2018-03-10 00:00:00,-133.51878,68.32029,1.9930548200261622
0,0,2018-03-11 00:00:00,-133.51878,68.32029,1.1082189690292814
0,0,2018-03-12 00:00:00,-133.51878,68.32029,0.4517610918214851
0,0,2018-03-13 00:00:00,-133.51878,68.32029,7.896105764052144
0,0,2018-03-14 00:00:00,-133.51878,68.32029,1.0466600770704837
0,0,2018-03-15 00:00:00,-133.51878,68.32029,3.0622648455827197
0,0,2018-03-16 00:00:00,-133.51878,68.32029,0.3439273808642825
0,0,2018-03-17 00:00:00,-133.51878,68.32029,3.417723892512717
0,0,2018-03-18 00:00:00,-133.51878,68.32029,5.247457262803425
0,0,2018-03-19 00:00:00,-133.51878,68.32029,1.6777539546124316
0,0,2018-03-20 00:00:00,-133.51878,68.32029,0.4315069100204549
0,0,2018-03-21 00:00:00,-133.51878,68.32029,1.5299746075296004
0,0,2018-03-22 00:00:00,-133.51878,68.32029,1.5445706500730474
0,0,2018-03-23 00:00:00,-133.51878,68.32029,0.4243906523442393
0,0,2018-03-24 00:00:00,-133.51878,68.32029,0.5030434765341003
0,0,2018-03-25 00:00:00,-133.51878,68.32029,2.031436347562964
0,0,2018-03-26 00:00:00,-133.51878,68.32029,2.472744372272068
0,0,2018-03-27 00:00:00,-133.51878,68.32029,4.049329482678705
0,0,2018-03-28 00:00:00,-133.51878,68.32029,5.153485674002737
0,0,2018-03-29 00:00:00,-133.51878,68.32029,4.270985170820148
0,0,2018-03-30 00:00:00,-133.51878,68.32029,10.046936511694145
0,0,2018-03-31 00:00:00,-133.51878,68.32029,9.12735638533908
0,0,2018-04-01 00:00:00,-133.51878,68.32029,1.9926442991326525
0,0,2018-04-02 00:00:00,-133.51878,68.32029,2.5740322117398193
0,0,2018-04-03 00:00:00,-133.51878,68.32029,1.191416164182677
0,0,2018-04-04 00:00:00,-133.51878,68.32029,2.567732071312016
0,0,2018-04-05 00:00:00,-133.51878,68.32029,3.9402303123110425
0,0,2018-04-06 00:00:00,-133.51878,68.32029,3.865392533318699
0,0,2018-04-07 00:00:00,-133.51878,68.32029,5.187540631790999
0,0,2018-04-08 00:00:00,-133.51878,68.32029,7.968267978910926
0,0,2018-04-09 00:00:00,-133.51878,68.32029,10.388254802095025
0,0,2018-04-10 00:00:00,-133.51878,68.32029,15.817486015298792
0,0,2018-04-11 00:00:00,-133.51878,68.32029,8.518102861270162
0,0,2018-04-12 00:00:00,-133.51878,68.32029,0.350787645365964
0,0,2018-04-13 00:00:00,-133.51878,68.32029,0.8835711881137747
0,0,2018-04-14 00:00:00,-133.51878,68.32029,3.4141844015943135
0,0,2018-04-15 00:00:00,-133.51878,68.32029,7.816330690971188
0,0,2018-04-16 00:00:00,-133.51878,68.32029,4.475038918866313
0,0,2018-04-17 00:00:00,-133.51878,68.32029,3.175195417001556
0,0,2018-04-18 00:00:00,-133.51878,68.32029,4.686797148080846
0,0,2018-04-19 00:00:00,-133.51878,68.32029,1.44571546378094
0,0,2018-04-20 00:00:00,-133.51878,68.32029,4.873867434863257
0,0,2018-04-21 00:00:00,-133.51878,68.32029,5.351179875567467
0,0,2018-04-22 00:00:00,-133.51878,68.32029,12.342326048262331
0,0,2018-04-23 00:00:00,-133.51878,68.32029,6.305868073568949
0,0,2018-04-24 00:00:00,-133.51878,68.32029,2.8016276841712284
0,0,2018-04-25 00:00:00,-133.51878,68.32029,0.665100262529232
0,0,2018-04-26 00:00:00,-133.51878,68.32029,10.816844638976876
0,0,2018-04-27 00:00:00,-133.51878,68.32029,15.62637331788205
0,0,2018-04-28 00:00:00,-133.51878,68.32029,5.589021153145897
0,0,2018-04-29 00:00:00,-133.51878,68.32029,8.802898127708259
0,0,2018-04-30 00:00:00,-133.51878,68.32029,7.215347443726941
0,0,2018-05-01 00:00:00,-133.51878,68.32029,10.966571437102674
0,0,2018-05-02 00:00:00,-133.51878,68.32029,11.036589420780182
0,0,2018-05-03 00:00:00,-133.51878,68.32029,12.702295486357057
0,0,2018-05-04 00:00:00,-133.51878,68.32029,29.47836927473108
0,0,2018-05-05 00:00:00,-133.51878,68.32029,20.71320620070704
0,0,2018-05-06 00:00:00,-133.51878,68.32029,8.322629029543121
0,0,2018-05-07 00:00:00,-133.51878,68.32029,6.121509495649661
0,0,2018-05-08 00:00:00,-133.51878,68.32029,13.119705181226093
0,0,2018-05-09 00:00:00,-133.51878,68.32029,24.993588669075546
0,0,2018-05-10 00:00:00,-133.51878,68.32029,32.47319358169047
0,0,2018-05-11 00:00:00,-133.51878,68.32029,45.84774149040812
0,0,2018-05-12 00:00:00,-133.51878,68.32029,19.849231661955823
0,0,2018-05-13 00:00:00,-133.51878,68.32029,28.855956650194738
0,0,2018-05-14 00:00:00,-133.51878,68.32029,40.06527209324582
0,0,2018-05-15 00:00:00,-133.51878,68.32029,32.11830732624677
0,0,2018-05-16 00:00:00,-133.51878,68.32029,44.33987816064782
0,0,2018-05-17 00:00:00,-133.51878,68.32029,26.3058578071818
0,0,2018-05-18 00:00:00,-133.51878,68.32029,29.917660198028443
0,0,2018-05-19 00:00:00,-133.51878,68.32029,27.339974491732942
0,0,2018-05-20 00:00:00,-133.51878,68.32029,62.57701162929945
0,0,2018-05-21 00:00:00,-133.51878,68.32029,37.21030366610292
0,0,2018-05-22 00:00:00,-133.51878,68.32029,21.583401312215273
0,0,2018-05-23 00:00:00,-133.51878,68.32029,34.28970375006729
0,0,2018-05-24 00:00:00,-133.51878,68.32029,32.18020585605277
0,0,2018-05-25 00:00:00,-133.51878,68.32029,31.32690915393428
0,0,2018-05-26 00:00:00,-133.51878,68.32029,36.51280297446556
0,0,2018-05-27 00:00:00,-133.51878,68.32029,13.403635198400492
0,0,2018-05-28 00:00:00,-133.51878,68.32029,48.431030952475304
0,0,2018-05-29 00:00:00,-133.51878,68.32029,80.21284962002223
0,0,2018-05-30 00:00:00,-133.51878,68.32029,78.59808100333494
0,0,2018-05-31 00:00:00,-133.51878,68.32029,44.08297614177044
0,0,2018-06-01 00:00:00,-133.51878,68.32029,68.72461134425552
0,0,2018-06-02 00:00:00,-133.51878,68.32029,80.63123001433708
0,0,2018-06-03 00:00:00,-133.51878,68.32029,86.55839131403216
0,0,2018-06-04 00:00:00,-133.51878,68.32029,63.7421904504291
0,0,2018-06-05 00:00:00,-133.51878,68.32029,55.28931183753821
0,0,2018-06-06 00:00:00,-133.51878,68.32029,45.91184689283161
0,0,2018-06-07 00:00:00,-133.51878,68.32029,47.17618230951262
0,0,2018-06-08 00:00:00,-133.51878,68.32029,59.454635462642734
0,0,2018-06-09 00:00:00,-133.51878,68.32029,45.98549087348544
0,0,2018-06-10 00:00:00,-133.51878,68.32029,24.342856919292036
0,0,2018-06-11 00:00:00,-133.51878,68.32029,47.928928090568895
0,0,2018-06-12 00:00:00,-133.51878,68.32029,78.26316470743113
0,0,2018-06-13 00:00:00,-133.51878,68.32029,104.54649302586529
0,0,2018-06-14 00:00:00,-133.51878,68.32029,57.22238822433783
0,0,2018-06-15 00:00:00,-133.51878,68.32029,38.60180032193687
0,0,2018-06-16 00:00:00,-133.51878,68.32029,26.826855378195074
0,0,2018-06-17 00:00:00,-133.51878,68.32029,107.1723815111556
0,0,2018-06-18 00:00:00,-133.51878,68.32029,49.473435954291396
0,0,2018-06-19 00:00:00,-133.51878,68.32029,22.20066089642862
0,0,2018-06-20 00:00:00,-133.51878,68.32029,91.64785410450686
0,0,2018-06-21 00:00:00,-133.51878,68.32029,102.57561049379389
0,0,2018-06-22 00:00:00,-133.51878,68.32029,64.71809076724472
0,0,2018-06-23 00:00:00,-133.51878,68.32029,27.470854212907142
0,0,2018-06-24 00:00:00,-133.51878,68.32029,67.34208462045348
0,0,2018-06-25 00:00:00,-133.51878,68.32029,28.304123773990682
0,0,2018-06-26 00:00:00,-133.51878,68.32029,91.26546247297274
0,0,2018-06-27 00:00:00,-133.51878,68.32029,40.61076962420795
0,0,2018-06-28 00:00:00,-133.51878,68.32029,38.59204792567493
0,0,2018-06-29 00:00:00,-133.51878,68.32029,80.01864269194472
0,0,2018-06-30 00:00:00,-133.51878,68.32029,77.10797582100595
0,0,2018-07-01 00:00:00,-133.51878,68.32029,66.25897459747482
0,0,2018-07-02 00:00:00,-133.51878,68.32029,129.3669574941347
0,0,2018-07-03 00:00:00,-133.51878,68.32029,58.229012702241796
0,0,2018-07-04 00:00:00,-133.51878,68.32029,73.37674054280544
0,0,2018-07-05 00:00:00,-133.51878,68.32029,36.03522472144618
0,0,2018-07-06 00:00:00,-133.51878,68.32029,32.650019507244956
0,0,2018-07-07 00:00:00,-133.51878,68.32029,61.404151818386396
0,0,2018-07-08 00:00:00,-133.51878,68.32029,61.140012530226414
0,0,2018-07-09 00:00:00,-133.51878,68.32029,60.238295185591596
0,0,2018-07-10 00:00:00,-133.51878,68.32029,77.72738172528163
0,0,2018-07-11 00:00:00,-133.51878,68.32029,17.88628223548188
0,0,2018-07-12 00:00:00,-133.51878,68.32029,92.09596195673218
0,0,2018-07-13 00:00:00,-133.51878,68.32029,110.95058517729285
0,0,2018-07-14 00:00:00,-133.51878,68.32029,108.84441700893684
0,0,2018-07-15 00:00:00,-133.51878,68.32029,95.41875330959739
0,0,2018-07-16 00:00:00,-133.51878,68.32029,65.6983962180246
0,0,2018-07-17 00:00:00,-133.51878,68.32029,37.31647973299041
0,0,2018-07-18 00:00:00,-133.51878,68.32029,73.39918505841527
0,0,2018-07-19 00:00:00,-133.51878,68.32029,22.148807767037763
0,0,2018-07-20 00:00:00,-133.51878,68.32029,76.5321437988124
0,0,2018-07-21 00:00:00,-133.51878,68.32029,90.34900611950474
0,0,2018-07-22 00:00:00,-133.51878,68.32029,104.16737488991345
0,0,2018-07-23 00:00:00,-133.51878,68.32029,96.92051181148769
0,0,2018-07-24 00:00:00,-133.51878,68.32029,86.68594031384413
0,0,2018-07-25 00:00:00,-133.51878,68.32029,101.07131908095339
0,0,2018-07-26 00:00:00,-133.51878,68.32029,55.967890489943876
0,0,2018-07-27 00:00:00,-133.51878,68.32029,15.950328171902648
0,0,2018-07-28 00:00:00,-133.51878,68.32029,53.859946999371864
0,0,2018-07-29 00:00:00,-133.51878,68.32029,46.157360957566965
0,0,2018-07-30 00:00:00,-133.51878,68.32029,74.28088392719663
0,0,2018-07-31 00:00:00,-133.51878,68.32029,54.378128238301365
0,0,2018-08-01 00:00:00,-133.51878,68.32029,35.21493843599343
0,0,2018-08-02 00:00:00,-133.51878,68.32029,36.512883639843
0,0,2018-08-03 00:00:00,-133.51878,68.32029,73.37313583791875
0,0,2018-08-04 00:00:00,-133.51878,68.32029,36.810463051958784
0,0,2018-08-05 00:00:00,-133.51878,68.32029,50.25355142709233
0,0,2018-08-06 00:00:00,-133.51878,68.32029,39.45380615233969
0,0,2018-08-07 00:00:00,-133.51878,68.32029,36.5343455212747
0,0,2018-08-08 00:00:00,-133.51878,68.32029,32.167715152314855
0,0,2018-08-09 00:00:00,-133.51878,68.32029,37.16775595304014
0,0,2018-08-10 00:00:00,-133.51878,68.32029,28.271099297015322
0,0,2018-08-11 00:00:00,-133.51878,68.32029,16.540092836512766
0,0,2018-08-12 00:00:00,-133.51878,68.32029,53.02093517480376
0,0,2018-08-13 00:00:00,-133.51878,68.32029,14.449603862785308
0,0,2018-08-14 00:00:00,-133.51878,68.32029,35.030060148529294
0,0,2018-08-15 00:00:00,-133.51878,68.32029,59.82227751853997
0,0,2018-08-16 00:00:00,-133.51878,68.32029,16.99028232284216
0,0,2018-08-17 00:00:00,-133.51878,68.32029,41.799471301570485
0,0,2018-08-18 00:00:00,-133.51878,68.32029,72.97653704520333
0,0,2018-08-19 00:00:00,-133.51878,68.32029,17.85391020439427
0,0,2018-08-20 00:00:00,-133.51878,68.32029,19.796058373587346
0,0,2018-08-21 00:00:00,-133.51878,68.32029,16.28108312531712
0,0,2018-08-22 00:00:00,-133.51878,68.32029,20.75452349679123
0,0,2018-08-23 00:00:00,-133.51878,68.32029,23.444893489359533
0,0,2018-08-24 00:00:00,-133.51878,68.32029,22.77804771380815
0,0,2018-08-25 00:00:00,-133.51878,68.32029,44.40995671448355
0,0,2018-08-26 00:00:00,-133.51878,68.32029,18.216104183422516
0,0,2018-08-27 00:00:00,-133.51878,68.32029,26.86282467780614
0,0,2018-08-28 00:00:00,-133.51878,68.32029,6.985250373335988
0,0,2018-08-29 00:00:00,-133.51878,68.32029,32.93390035664078
0,0,2018-08-30 00:00:00,-133.51878,68.32029,35.4275421502872
0,0,2018-08-31 00:00:00,-133.51878,68.32029,31.01757015391583
0,0,2018-09-01 00:00:00,-133.51878,68.32029,14.844426070262315
0,0,2018-09-02 00:00:00,-133.51878,68.32029,21.458593820339605
0,0,2018-09-03 00:00:00,-133.51878,68.32029,4.37930536302741
0,0,2018-09-04 00:00:00,-133.51878,68.32029,35.24331732881989
0,0,2018-09-05 00:00:00,-133.51878,68.32029,22.85387557496611
0,0,2018-09-06 00:00:00,-133.51878,68.32029,4.627162869388314
0,0,2018-09-07 00:00:00,-133.51878,68.32029,16.07357553059162
0,0,2018-09-08 00:00:00,-133.51878,68.32029,17.185703543290447
0,0,2018-09-09 00:00:00,-133.51878,68.32029,9.312850391218266
0,0,2018-09-10 00:00:00,-133.51878,68.32029,14.325289862517266
0,0,2018-09-11 00:00:00,-133.51878,68.32029,15.142289245273032
0,0,2018-09-12 00:00:00,-133.51878,68.32029,9.014201237190912
0,0,2018-09-13 00:00:00,-133.51878,68.32029,11.633983147928701
0,0,2018-09-14 00:00:00,-133.51878,68.32029,9.136704178891797
0,0,2018-09-15 00:00:00,-133.51878,68.32029,14.175702013205326
0,0,2018-09-16 00:00:00,-133.51878,68.32029,8.962473614166873
0,0,2018-09-17 00:00:00,-133.51878,68.32029,5.808064264805526
0,0,2018-09-18 00:00:00,-133.51878,68.32029,7.509693708666384
0,0,2018-09-19 00:00:00,-133.51878,68.32029,6.026604723010267
0,0,2018-09-20 00:00:00,-133.51878,68.32029,14.184593959370597
0,0,2018-09-21 00:00:00,-133.51878,68.32029,8.98245793411501
0,0,2018-09-22 00:00:00,-133.51878,68.32029,4.893036405700376
0,0,2018-09-23 00:00:00,-133.51878,68.32029,6.18171741457106
0,0,2018-09-24 00:00:00,-133.51878,68.32029,14.88838114510242
0,0,2018-09-25 00:00:00,-133.51878,68.32029,1.9806253584517435
0,0,2018-09-26 00:00:00,-133.51878,68.32029,16.840358245638217
0,0,2018-09-27 00:00:00,-133.51878,68.32029,15.292984880367255
0,0,2018-09-28 00:00:00,-133.51878,68.32029,0.8767327797826071
0,0,2018-09-29 00:00:00,-133.51878,68.32029,11.722872885193306
0,0,2018-09-30 00:00:00,-133.51878,68.32029,1.658340966001451
0,0,2018-10-01 00:00:00,-133.51878,68.32029,2.767458684544114
0,0,2018-10-02 00:00:00,-133.51878,68.32029,4.226874248379762
0,0,2018-10-03 00:00:00,-133.51878,68.32029,0.17120526464315935
0,0,2018-10-04 00:00:00,-133.51878,68.32029,3.359507025657919
0,0,2018-10-05 00:00:00,-133.51878,68.32029,0.026169396038265583
0,0,2018-10-06 00:00:00,-133.51878,68.32029,1.6091127155951366
0,0,2018-10-07 00:00:00,-133.51878,68.32029,0.8797240354024064
0,0,2018-10-08 00:00:00,-133.51878,68.32029,9.490519339417018
0,0,2018-10-09 00:00:00,-133.51878,68.32029,2.5935008825143653
0,0,2018-10-10 00:00:00,-133.51878,68.32029,1.3774912812895055
0,0,2018-10-11 00:00:00,-133.51878,68.32029,8.87119909371568
0,0,2018-10-12 00:00:00,-133.51878,68.32029,3.9267323415686306
0,0,2018-10-13 00:00:00,-133.51878,68.32029,3.4539019310454084
0,0,2018-10-14 00:00:00,-133.51878,68.32029,3.032678209367091
0,0,2018-10-15 00:00:00,-133.51878,68.32029,3.475827920447871
0,0,2018-10-16 00:00:00,-133.51878,68.32029,4.771496512113504
0,0,2018-10-17 00:00:00,-133.51878,68.32029,8.16365037543253
0,0,2018-10-18 00:00:00,-133.51878,68.32029,7.854056708300122
0,0,2018-10-19 00:00:00,-133.51878,68.32029,3.8650029464991067
0,0,2018-10-20 00:00:00,-133.51878,68.32029,0.5667217304715834
0,0,2018-10-21 00:00:00,-133.51878,68.32029,1.3882707081710233
0,0,2018-10-22 00:00:00,-133.51878,68.32029,2.710953442589083
0,0,2018-10-23 00:00:00,-133.51878,68.32029,-0.793201040596695
0,0,2018-10-24 00:00:00,-133.51878,68.32029,0.12895596894565187
0,0,2018-10-25 00:00:00,-133.51878,68.32029,3.013370699651398
0,0,2018-10-26 00:00:00,-133.51878,68.32029,0.40530785658037255
0,0,2018-10-27 00:00:00,-133.51878,68.32029,2.442793027671562
0,0,2018-10-28 00:00:00,-133.51878,68.32029,0.4420406546654678
0,0,2018-10-29 00:00:00,-133.51878,68.32029,1.2339640791836157
0,0,2018-10-30 00:00:00,-133.51878,68.32029,0.2064045843456388
0,0,2018-10-31 00:00:00,-133.51878,68.32029,0.0814255326083297
0,0,2018-11-01 00:00:00,-133.51878,68.32029,0.4974838075702937
0,0,2018-11-02 00:00:00,-133.51878,68.32029,0.22556088261348506
0,0,2018-11-03 00:00:00,-133.51878,68.32029,0.5082224297439161
0,0,2018-11-04 00:00:00,-133.51878,68.32029,-0.058975742469879196
0,0,2018-11-05 00:00:00,-133.51878,68.32029,0.3749013864131883
0,0,2018-11-06 00:00:00,-133.51878,68.32029,1.4528009376189726
0,0,2018-11-07 00:00:00,-133.51878,68.32029,1.7726520390063716
0,0,2018-11-08 00:00:00,-133.51878,68.32029,0.44432529441220064
0,0,2018-11-09 00:00:00,-133.51878,68.32029,0.12559324028023036
0,0,2018-11-10 00:00:00,-133.51878,68.32029,-0.8410929119013022
0,0,2018-11-11 00:00:00,-133.51878,68.32029,1.3627160263127582
0,0,2018-11-12 00:00:00,-133.51878,68.32029,3.746089707182737
0,0,2018-11-13 00:00:00,-133.51878,68.32029,1.2483079496272722
0,0,2018-11-14 00:00:00,-133.51878,68.32029,0.31158171965003534
0,0,2018-11-15 00:00:00,-133.51878,68.32029,2.1983794618956853
0,0,2018-11-16 00:00:00,-133.51878,68.32029,3.4785875579729937
0,0,2018-11-17 00:00:00,-133.51878,68.32029,3.7886049386584832
0,0,2018-11-18 00:00:00,-133.51878,68.32029,2.645898006318281
0,0,2018-11-19 00:00:00,-133.51878,68.32029,0.3017583892121189
0,0,2018-11-20 00:00:00,-133.51878,68.32029,0.2799021837097415
0,0,2018-11-21 00:00:00,-133.51878,68.32029,2.7859475107491165
0,0,2018-11-22 00:00:00,-133.51878,68.32029,2.937402131579104
0,0,2018-11-23 00:00:00,-133.51878,68.32029,1.8487157101178597
0,0,2018-11-24 00:00:00,-133.51878,68.32029,2.9352045106869125
0,0,2018-11-25 00:00:00,-133.51878,68.32029,3.162809626419236
0,0,2018-11-26 00:00:00,-133.51878,68.32029,1.6160198046177363
0,0,2018-11-27 00:00:00,-133.51878,68.32029,0.16098363093280915
0,0,2018-11-28 00:00:00,-133.51878,68.32029,0.9846538010665623
0,0,2018-11-29 00:00:00,-133.51878,68.32029,0.627709280839916
0,0,2018-11-30 00:00:00,-133.51878,68.32029,-0.4086617119957265
0,0,2018-12-01 00:00:00,-133.51878,68.32029,-0.42898373006597074
0,0,2018-12-02 00:00:00,-133.51878,68.32029,0.08358209785201409
0,0,2018-12-03 00:00:00,-133.51878,68.32029,-0.7594892734628153
0,0,2018-12-04 00:00:00,-133.51878,68.32029,0.5376947751045633
0,0,2018-12-05 00:00:00,-133.51878,68.32029,1.1475200617751484
0,0,2018-12-06 00:00:00,-133.51878,68.32029,3.322391433098291
0,0,2018-12-07 00:00:00,-133.51878,68.32029,2.81320053681257
0,0,2018-12-08 00:00:00,-133.51878,68.32029,-0.059751048518053934
0,0,2018-12-09 00:00:00,-133.51878,68.32029,0.508637388727554
0,0,2018-12-10 00:00:00,-133.51878,68.32029,1.290708043196589
0,0,2018-12-11 00:00:00,-133.51878,68.32029,0.20087341577536863
0,0,2018-12-12 00:00:00,-133.51878,68.32029,0.4870196409740846
0,0,2018-12-13 00:00:00,-133.51878,68.32029,1.1909426362939943
0,0,2018-12-14 00:00:00,-133.51878,68.32029,1.4923587622630492
0,0,2018-12-15 00:00:00,-133.51878,68.32029,1.4434400261852192
0,0,2018-12-16 00:00:00,-133.51878,68.32029,1.6329099334384969
0,0,2018-12-17 00:00:00,-133.51878,68.32029,0.2921293577731487
0,0,2018-12-18 00:00:00,-133.51878,68.32029,-0.029255542431999376
0,0,2018-12-19 00:00:00,-133.51878,68.32029,0.3976528644263937
0,0,2018-12-20 00:00:00,-133.51878,68.32029,0.28585786378482253
0,0,2018-12-21 00:00:00,-133.51878,68.32029,0.07717454248592613
0,0,2018-12-22 00:00:00,-133.51878,68.32029,0.08643627214489895
0,0,2018-12-23 00:00:00,-133.51878,68.32029,0.27703100481692494
0,0,2018-12-24 00:00:00,-133.51878,68.32029,0.06306463502776775
0,0,2018-12-25 00:00:00,-133.51878,68.32029,0.28280930346457506
0,0,2018-12-26 00:00:00,-133.51878,68.32029,0.21889621710425952
0,0,2018-12-27 00:00:00,-133.51878,68.32029,0.04989489043206216
0,0,2018-12-28 00:00:00,-133.51878,68.32029,0.19501469126718637
0,0,2018-12-29 00:00:00,-133.51878,68.32029,-0.13831936320918883
0,0,2018-12-30 00:00:00,-133.51878,68.32029,-0.7312430557578525
0,0,2018-12-31 00:00:00,-133.51878,68.32029,-0.9747301034075472
