lat,lon,time,longitude,latitude,hfss
0,0,2016-01-01 00:00:00,-133.51878,68.32029,-22.072572264299993
0,0,2016-01-02 00:00:00,-133.51878,68.32029,-11.098808066748255
0,0,2016-01-03 00:00:00,-133.51878,68.32029,-11.954162488702382
0,0,2016-01-04 00:00:00,-133.51878,68.32029,-11.77252963597455
0,0,2016-01-05 00:00:00,-133.51878,68.32029,-12.154563068057087
0,0,2016-01-06 00:00:00,-133.51878,68.32029,0.3534155501601108
0,0,2016-01-07 00:00:00,-133.51878,68.32029,8.148567754711978
0,0,2016-01-08 00:00:00,-133.51878,68.32029,-2.5094090254752124
0,0,2016-01-09 00:00:00,-133.51878,68.32029,-4.12311006441717
0,0,2016-01-10 00:00:00,-133.51878,68.32029,-4.626422538056871
0,0,2016-01-11 00:00:00,-133.51878,68.32029,2.870259582406199
0,0,2016-01-12 00:00:00,-133.51878,68.32029,0.7810939575817005
0,0,2016-01-13 00:00:00,-133.51878,68.32029,-3.1100054664289254
0,0,2016-01-14 00:00:00,-133.51878,68.32029,-3.8834315717162795
0,0,2016-01-15 00:00:00,-133.51878,68.32029,-2.3500339169441014
0,0,2016-01-16 00:00:00,-133.51878,68.32029,-2.369875878752074
0,0,2016-01-17 00:00:00,-133.51878,68.32029,-4.35618502091593
0,0,2016-01-18 00:00:00,-133.51878,68.32029,-0.13741775562223416
0,0,2016-01-19 00:00:00,-133.51878,68.32029,-3.3418212238202503
0,0,2016-01-20 00:00:00,-133.51878,68.32029,-2.034839126558301
0,0,2016-01-21 00:00:00,-133.51878,68.32029,-3.928589617354737
0,0,2016-01-22 00:00:00,-133.51878,68.32029,-2.7656389566937425
0,0,2016-01-23 00:00:00,-133.51878,68.32029,-2.7279075578451173
0,0,2016-01-24 00:00:00,-133.51878,68.32029,1.351163786035701
0,0,2016-01-25 00:00:00,-133.51878,68.32029,4.054242614998537
0,0,2016-01-26 00:00:00,-133.51878,68.32029,4.509557329367232
0,0,2016-01-27 00:00:00,-133.51878,68.32029,6.274170469449139
0,0,2016-01-28 00:00:00,-133.51878,68.32029,-1.245564963131277
0,0,2016-01-29 00:00:00,-133.51878,68.32029,-3.1608710883763025
0,0,2016-01-30 00:00:00,-133.51878,68.32029,-2.9336005574678072
0,0,2016-01-31 00:00:00,-133.51878,68.32029,-1.7489899442085886
0,0,2016-02-01 00:00:00,-133.51878,68.32029,-2.0718755967933906
0,0,2016-02-02 00:00:00,-133.51878,68.32029,4.470773280942654
0,0,2016-02-03 00:00:00,-133.51878,68.32029,15.849906173451393
0,0,2016-02-04 00:00:00,-133.51878,68.32029,30.93988625686436
0,0,2016-02-05 00:00:00,-133.51878,68.32029,14.603564830397163
0,0,2016-02-06 00:00:00,-133.51878,68.32029,-0.11929372350890866
0,0,2016-02-07 00:00:00,-133.51878,68.32029,-0.4400821969365351
0,0,2016-02-08 00:00:00,-133.51878,68.32029,-3.559253422759239
0,0,2016-02-09 00:00:00,-133.51878,68.32029,-12.216033926450374
0,0,2016-02-10 00:00:00,-133.51878,68.32029,0.23937161641468527
0,0,2016-02-11 00:00:00,-133.51878,68.32029,16.426913255486692
0,0,2016-02-12 00:00:00,-133.51878,68.32029,21.849941342885785
0,0,2016-02-13 00:00:00,-133.51878,68.32029,29.29620879786437
0,0,2016-02-14 00:00:00,-133.51878,68.32029,30.074860568607363
0,0,2016-02-15 00:00:00,-133.51878,68.32029,4.633098142590845
0,0,2016-02-16 00:00:00,-133.51878,68.32029,-1.1062094426029858
0,0,2016-02-17 00:00:00,-133.51878,68.32029,4.985995587775887
0,0,2016-02-18 00:00:00,-133.51878,68.32029,2.3156394594689793
0,0,2016-02-19 00:00:00,-133.51878,68.32029,1.366253029046588
0,0,2016-02-20 00:00:00,-133.51878,68.32029,14.770203830675145
0,0,2016-02-21 00:00:00,-133.51878,68.32029,12.273452908250926
0,0,2016-02-22 00:00:00,-133.51878,68.32029,3.709073645103043
0,0,2016-02-23 00:00:00,-133.51878,68.32029,-2.82855432541035
0,0,2016-02-24 00:00:00,-133.51878,68.32029,-1.0798109539586283
0,0,2016-02-25 00:00:00,-133.51878,68.32029,5.419798877589394
0,0,2016-02-26 00:00:00,-133.51878,68.32029,-6.7323422886431254
0,0,2016-02-27 00:00:00,-133.51878,68.32029,15.155450358010798
0,0,2016-02-28 00:00:00,-133.51878,68.32029,42.884997409946955
0,0,2016-03-01 00:00:00,-133.51878,68.32029,21.173830981890855
0,0,2016-03-02 00:00:00,-133.51878,68.32029,-4.261313110289337
0,0,2016-03-03 00:00:00,-133.51878,68.32029,6.820657157774242
0,0,2016-03-04 00:00:00,-133.51878,68.32029,9.359096937808475
0,0,2016-03-05 00:00:00,-133.51878,68.32029,6.232199266243928
0,0,2016-03-06 00:00:00,-133.51878,68.32029,2.5826759681067895
0,0,2016-03-07 00:00:00,-133.51878,68.32029,7.7639412229971265
0,0,2016-03-08 00:00:00,-133.51878,68.32029,10.687605390277083
0,0,2016-03-09 00:00:00,-133.51878,68.32029,18.174402077130097
0,0,2016-03-10 00:00:00,-133.51878,68.32029,19.99508545895178
0,0,2016-03-11 00:00:00,-133.51878,68.32029,34.68413901385178
0,0,2016-03-12 00:00:00,-133.51878,68.32029,29.14217845828301
0,0,2016-03-13 00:00:00,-133.51878,68.32029,22.680171522440457
0,0,2016-03-14 00:00:00,-133.51878,68.32029,34.4500314307566
0,0,2016-03-15 00:00:00,-133.51878,68.32029,43.18733249870113
0,0,2016-03-16 00:00:00,-133.51878,68.32029,36.51174594792757
0,0,2016-03-17 00:00:00,-133.51878,68.32029,46.419712486675586
0,0,2016-03-18 00:00:00,-133.51878,68.32029,25.193648549674396
0,0,2016-03-19 00:00:00,-133.51878,68.32029,-0.7136661262105819
0,0,2016-03-20 00:00:00,-133.51878,68.32029,2.4555457457059235
0,0,2016-03-21 00:00:00,-133.51878,68.32029,-1.0052885107804592
0,0,2016-03-22 00:00:00,-133.51878,68.32029,10.411670687472325
0,0,2016-03-23 00:00:00,-133.51878,68.32029,6.033438901563916
0,0,2016-03-24 00:00:00,-133.51878,68.32029,15.711892220639065
0,0,2016-03-25 00:00:00,-133.51878,68.32029,35.395307168129996
0,0,2016-03-26 00:00:00,-133.51878,68.32029,16.1287304583975
0,0,2016-03-27 00:00:00,-133.51878,68.32029,16.099084554030288
0,0,2016-03-28 00:00:00,-133.51878,68.32029,22.39004163042296
0,0,2016-03-29 00:00:00,-133.51878,68.32029,11.752208194401328
0,0,2016-03-30 00:00:00,-133.51878,68.32029,45.75723936312617
0,0,2016-03-31 00:00:00,-133.51878,68.32029,44.304510014399085
0,0,2016-04-01 00:00:00,-133.51878,68.32029,24.757856696871812
0,0,2016-04-02 00:00:00,-133.51878,68.32029,34.80800207843148
0,0,2016-04-03 00:00:00,-133.51878,68.32029,6.378949763847655
0,0,2016-04-04 00:00:00,-133.51878,68.32029,10.519670905125073
0,0,2016-04-05 00:00:00,-133.51878,68.32029,17.288341049836674
0,0,2016-04-06 00:00:00,-133.51878,68.32029,24.316922109779664
0,0,2016-04-07 00:00:00,-133.51878,68.32029,9.955273405766595
0,0,2016-04-08 00:00:00,-133.51878,68.32029,9.037869777503532
0,0,2016-04-09 00:00:00,-133.51878,68.32029,9.679785629516461
0,0,2016-04-10 00:00:00,-133.51878,68.32029,23.67001599344476
0,0,2016-04-11 00:00:00,-133.51878,68.32029,39.46703474034124
0,0,2016-04-12 00:00:00,-133.51878,68.32029,43.01965560216453
0,0,2016-04-13 00:00:00,-133.51878,68.32029,32.04740358968864
0,0,2016-04-14 00:00:00,-133.51878,68.32029,18.922516362792802
0,0,2016-04-15 00:00:00,-133.51878,68.32029,34.56372422792277
0,0,2016-04-16 00:00:00,-133.51878,68.32029,30.59934414943913
0,0,2016-04-17 00:00:00,-133.51878,68.32029,39.85337446043198
0,0,2016-04-18 00:00:00,-133.51878,68.32029,16.081721399247414
0,0,2016-04-19 00:00:00,-133.51878,68.32029,1.1923994303323753
0,0,2016-04-20 00:00:00,-133.51878,68.32029,12.275561174811509
0,0,2016-04-21 00:00:00,-133.51878,68.32029,14.912167466984778
0,0,2016-04-22 00:00:00,-133.51878,68.32029,32.38235540544029
0,0,2016-04-23 00:00:00,-133.51878,68.32029,29.83059639642691
0,0,2016-04-24 00:00:00,-133.51878,68.32029,51.51492249643227
0,0,2016-04-25 00:00:00,-133.51878,68.32029,40.679939083442655
0,0,2016-04-26 00:00:00,-133.51878,68.32029,45.18256523060449
0,0,2016-04-27 00:00:00,-133.51878,68.32029,59.55547921117673
0,0,2016-04-28 00:00:00,-133.51878,68.32029,73.04796778642397
0,0,2016-04-29 00:00:00,-133.51878,68.32029,72.81820818690827
0,0,2016-04-30 00:00:00,-133.51878,68.32029,85.14869717531171
0,0,2016-05-01 00:00:00,-133.51878,68.32029,96.01993403538734
0,0,2016-05-02 00:00:00,-133.51878,68.32029,99.89034673895247
0,0,2016-05-03 00:00:00,-133.51878,68.32029,118.66435145791365
0,0,2016-05-04 00:00:00,-133.51878,68.32029,71.9973339170713
0,0,2016-05-05 00:00:00,-133.51878,68.32029,53.099227906316905
0,0,2016-05-06 00:00:00,-133.51878,68.32029,109.03293361485625
0,0,2016-05-07 00:00:00,-133.51878,68.32029,83.48184517089051
0,0,2016-05-08 00:00:00,-133.51878,68.32029,45.60674662754033
0,0,2016-05-09 00:00:00,-133.51878,68.32029,71.21039034559752
0,0,2016-05-10 00:00:00,-133.51878,68.32029,62.4300223868743
0,0,2016-05-11 00:00:00,-133.51878,68.32029,73.9774271817784
0,0,2016-05-12 00:00:00,-133.51878,68.32029,91.60262903762276
0,0,2016-05-13 00:00:00,-133.51878,68.32029,118.54566882803277
0,0,2016-05-14 00:00:00,-133.51878,68.32029,75.87995145866121
0,0,2016-05-15 00:00:00,-133.51878,68.32029,50.99724562390173
0,0,2016-05-16 00:00:00,-133.51878,68.32029,8.353875902646339
0,0,2016-05-17 00:00:00,-133.51878,68.32029,56.320929468541834
0,0,2016-05-18 00:00:00,-133.51878,68.32029,81.6019078365005
0,0,2016-05-19 00:00:00,-133.51878,68.32029,75.59056096702133
0,0,2016-05-20 00:00:00,-133.51878,68.32029,90.475067031825
0,0,2016-05-21 00:00:00,-133.51878,68.32029,121.94604214085528
0,0,2016-05-22 00:00:00,-133.51878,68.32029,69.64292821211394
0,0,2016-05-23 00:00:00,-133.51878,68.32029,29.261499006421193
0,0,2016-05-24 00:00:00,-133.51878,68.32029,35.052012089034385
0,0,2016-05-25 00:00:00,-133.51878,68.32029,101.47969679578392
0,0,2016-05-26 00:00:00,-133.51878,68.32029,154.52998881172462
0,0,2016-05-27 00:00:00,-133.51878,68.32029,104.74531275186223
0,0,2016-05-28 00:00:00,-133.51878,68.32029,144.08216945225874
0,0,2016-05-29 00:00:00,-133.51878,68.32029,84.69655681020178
0,0,2016-05-30 00:00:00,-133.51878,68.32029,131.3775889301802
0,0,2016-05-31 00:00:00,-133.51878,68.32029,170.8876795936013
0,0,2016-06-01 00:00:00,-133.51878,68.32029,85.33085441151088
0,0,2016-06-02 00:00:00,-133.51878,68.32029,65.04240644332161
0,0,2016-06-03 00:00:00,-133.51878,68.32029,-6.912389222506853
0,0,2016-06-04 00:00:00,-133.51878,68.32029,97.07849918642269
0,0,2016-06-05 00:00:00,-133.51878,68.32029,140.31291130165587
0,0,2016-06-06 00:00:00,-133.51878,68.32029,19.804363585921305
0,0,2016-06-07 00:00:00,-133.51878,68.32029,117.7430510936597
0,0,2016-06-08 00:00:00,-133.51878,68.32029,104.93774874829712
0,0,2016-06-09 00:00:00,-133.51878,68.32029,70.98295131371607
0,0,2016-06-10 00:00:00,-133.51878,68.32029,-3.0089590152035943
0,0,2016-06-11 00:00:00,-133.51878,68.32029,54.54929782978797
0,0,2016-06-12 00:00:00,-133.51878,68.32029,46.8783490335289
0,0,2016-06-13 00:00:00,-133.51878,68.32029,102.26392957617746
0,0,2016-06-14 00:00:00,-133.51878,68.32029,92.6362048007699
0,0,2016-06-15 00:00:00,-133.51878,68.32029,145.38536744008186
0,0,2016-06-16 00:00:00,-133.51878,68.32029,17.154950362529465
0,0,2016-06-17 00:00:00,-133.51878,68.32029,40.66908198011884
0,0,2016-06-18 00:00:00,-133.51878,68.32029,46.723841691157226
0,0,2016-06-19 00:00:00,-133.51878,68.32029,70.00973331344689
0,0,2016-06-20 00:00:00,-133.51878,68.32029,39.17490737751001
0,0,2016-06-21 00:00:00,-133.51878,68.32029,89.30759097224394
0,0,2016-06-22 00:00:00,-133.51878,68.32029,-5.410073165081937
0,0,2016-06-23 00:00:00,-133.51878,68.32029,-5.4968048843411
0,0,2016-06-24 00:00:00,-133.51878,68.32029,66.39901280296121
0,0,2016-06-25 00:00:00,-133.51878,68.32029,31.48839778412643
0,0,2016-06-26 00:00:00,-133.51878,68.32029,136.326930161565
0,0,2016-06-27 00:00:00,-133.51878,68.32029,39.27234874989699
0,0,2016-06-28 00:00:00,-133.51878,68.32029,80.03840080400475
0,0,2016-06-29 00:00:00,-133.51878,68.32029,78.17518772694864
0,0,2016-06-30 00:00:00,-133.51878,68.32029,108.52233549016955
0,0,2016-07-01 00:00:00,-133.51878,68.32029,17.424622070302828
0,0,2016-07-02 00:00:00,-133.51878,68.32029,19.241800738991603
0,0,2016-07-03 00:00:00,-133.51878,68.32029,26.463465688281975
0,0,2016-07-04 00:00:00,-133.51878,68.32029,43.29973095179287
0,0,2016-07-05 00:00:00,-133.51878,68.32029,88.33323218668319
0,0,2016-07-06 00:00:00,-133.51878,68.32029,40.86417265828889
0,0,2016-07-07 00:00:00,-133.51878,68.32029,34.34030491542879
0,0,2016-07-08 00:00:00,-133.51878,68.32029,0.02199874031128986
0,0,2016-07-09 00:00:00,-133.51878,68.32029,19.877049107057896
0,0,2016-07-10 00:00:00,-133.51878,68.32029,79.19622492570657
0,0,2016-07-11 00:00:00,-133.51878,68.32029,49.62711302920877
0,0,2016-07-12 00:00:00,-133.51878,68.32029,17.420164402157226
0,0,2016-07-13 00:00:00,-133.51878,68.32029,26.702574625597972
0,0,2016-07-14 00:00:00,-133.51878,68.32029,73.62492509277415
0,0,2016-07-15 00:00:00,-133.51878,68.32029,92.8957597153546
0,0,2016-07-16 00:00:00,-133.51878,68.32029,51.54921890630658
0,0,2016-07-17 00:00:00,-133.51878,68.32029,85.53199377358938
0,0,2016-07-18 00:00:00,-133.51878,68.32029,84.14661763086039
0,0,2016-07-19 00:00:00,-133.51878,68.32029,40.887910094883416
0,0,2016-07-20 00:00:00,-133.51878,68.32029,22.591375983823895
0,0,2016-07-21 00:00:00,-133.51878,68.32029,59.39696197463433
0,0,2016-07-22 00:00:00,-133.51878,68.32029,10.098939542272953
0,0,2016-07-23 00:00:00,-133.51878,68.32029,59.09346850310911
0,0,2016-07-24 00:00:00,-133.51878,68.32029,48.35211859369691
0,0,2016-07-25 00:00:00,-133.51878,68.32029,24.062100507188614
0,0,2016-07-26 00:00:00,-133.51878,68.32029,18.72327686690293
0,0,2016-07-27 00:00:00,-133.51878,68.32029,52.77654834718768
0,0,2016-07-28 00:00:00,-133.51878,68.32029,54.39252973812909
0,0,2016-07-29 00:00:00,-133.51878,68.32029,71.59051409294666
0,0,2016-07-30 00:00:00,-133.51878,68.32029,26.8695849560013
0,0,2016-07-31 00:00:00,-133.51878,68.32029,-6.549734149380385
0,0,2016-08-01 00:00:00,-133.51878,68.32029,113.64357844700113
0,0,2016-08-02 00:00:00,-133.51878,68.32029,119.05679920638856
0,0,2016-08-03 00:00:00,-133.51878,68.32029,3.0929504526627714
0,0,2016-08-04 00:00:00,-133.51878,68.32029,-7.858847380165302
0,0,2016-08-05 00:00:00,-133.51878,68.32029,13.350696933926068
0,0,2016-08-06 00:00:00,-133.51878,68.32029,-5.657298841576023
0,0,2016-08-07 00:00:00,-133.51878,68.32029,26.632114774285228
0,0,2016-08-08 00:00:00,-133.51878,68.32029,82.83441201181608
0,0,2016-08-09 00:00:00,-133.51878,68.32029,125.2117271523481
0,0,2016-08-10 00:00:00,-133.51878,68.32029,8.532031475764148
0,0,2016-08-11 00:00:00,-133.51878,68.32029,-0.3282590815440453
0,0,2016-08-12 00:00:00,-133.51878,68.32029,1.5805181410271134
0,0,2016-08-13 00:00:00,-133.51878,68.32029,38.66543560747321
0,0,2016-08-14 00:00:00,-133.51878,68.32029,14.020148915924613
0,0,2016-08-15 00:00:00,-133.51878,68.32029,3.2760136376981666
0,0,2016-08-16 00:00:00,-133.51878,68.32029,19.289368502812643
0,0,2016-08-17 00:00:00,-133.51878,68.32029,-5.284592356823101
0,0,2016-08-18 00:00:00,-133.51878,68.32029,36.43866041876972
0,0,2016-08-19 00:00:00,-133.51878,68.32029,53.94034751367629
0,0,2016-08-20 00:00:00,-133.51878,68.32029,3.114375924877784
0,0,2016-08-21 00:00:00,-133.51878,68.32029,48.92352586760372
0,0,2016-08-22 00:00:00,-133.51878,68.32029,30.40017584459747
0,0,2016-08-23 00:00:00,-133.51878,68.32029,-2.0688192474514864
0,0,2016-08-24 00:00:00,-133.51878,68.32029,61.98326067826181
0,0,2016-08-25 00:00:00,-133.51878,68.32029,93.12135227034172
0,0,2016-08-26 00:00:00,-133.51878,68.32029,36.95372354888392
0,0,2016-08-27 00:00:00,-133.51878,68.32029,8.517674067192655
0,0,2016-08-28 00:00:00,-133.51878,68.32029,98.82891826616522
0,0,2016-08-29 00:00:00,-133.51878,68.32029,-6.506622037799521
0,0,2016-08-30 00:00:00,-133.51878,68.32029,31.257366820707144
0,0,2016-08-31 00:00:00,-133.51878,68.32029,-6.123552427719424
0,0,2016-09-01 00:00:00,-133.51878,68.32029,75.41841075632836
0,0,2016-09-02 00:00:00,-133.51878,68.32029,68.7360940364514
0,0,2016-09-03 00:00:00,-133.51878,68.32029,25.228878449050853
0,0,2016-09-04 00:00:00,-133.51878,68.32029,10.20845450816031
0,0,2016-09-05 00:00:00,-133.51878,68.32029,3.023733078117735
0,0,2016-09-06 00:00:00,-133.51878,68.32029,9.567620219645375
0,0,2016-09-07 00:00:00,-133.51878,68.32029,6.523627737672857
0,0,2016-09-08 00:00:00,-133.51878,68.32029,22.537200736677494
0,0,2016-09-09 00:00:00,-133.51878,68.32029,50.91567966310394
0,0,2016-09-10 00:00:00,-133.51878,68.32029,40.252361809134904
0,0,2016-09-11 00:00:00,-133.51878,68.32029,28.487405467461972
0,0,2016-09-12 00:00:00,-133.51878,68.32029,-4.34328695835139
0,0,2016-09-13 00:00:00,-133.51878,68.32029,57.87496332016482
0,0,2016-09-14 00:00:00,-133.51878,68.32029,6.629708094314996
0,0,2016-09-15 00:00:00,-133.51878,68.32029,26.081810764959148
0,0,2016-09-16 00:00:00,-133.51878,68.32029,-0.6819039493786118
0,0,2016-09-17 00:00:00,-133.51878,68.32029,31.353860201715776
0,0,2016-09-18 00:00:00,-133.51878,68.32029,-2.9680861819060937
0,0,2016-09-19 00:00:00,-133.51878,68.32029,28.26211111880218
0,0,2016-09-20 00:00:00,-133.51878,68.32029,-8.121476099700338
0,0,2016-09-21 00:00:00,-133.51878,68.32029,11.320943214735832
0,0,2016-09-22 00:00:00,-133.51878,68.32029,-4.074765638788651
0,0,2016-09-23 00:00:00,-133.51878,68.32029,19.048712951256945
0,0,2016-09-24 00:00:00,-133.51878,68.32029,27.278055096832222
0,0,2016-09-25 00:00:00,-133.51878,68.32029,21.67052201976676
0,0,2016-09-26 00:00:00,-133.51878,68.32029,23.313801771094983
0,0,2016-09-27 00:00:00,-133.51878,68.32029,7.880627379870757
0,0,2016-09-28 00:00:00,-133.51878,68.32029,13.111574581299225
0,0,2016-09-29 00:00:00,-133.51878,68.32029,1.6486664492052105
0,0,2016-09-30 00:00:00,-133.51878,68.32029,-2.710807831127415
0,0,2016-10-01 00:00:00,-133.51878,68.32029,15.369445673275811
0,0,2016-10-02 00:00:00,-133.51878,68.32029,9.222285943126527
0,0,2016-10-03 00:00:00,-133.51878,68.32029,-0.4264018860219195
0,0,2016-10-04 00:00:00,-133.51878,68.32029,13.516616577572458
0,0,2016-10-05 00:00:00,-133.51878,68.32029,14.604014681643129
0,0,2016-10-06 00:00:00,-133.51878,68.32029,-2.688263569129336
0,0,2016-10-07 00:00:00,-133.51878,68.32029,6.457122523154908
0,0,2016-10-08 00:00:00,-133.51878,68.32029,3.2095907115643967
0,0,2016-10-09 00:00:00,-133.51878,68.32029,36.15682046299584
0,0,2016-10-10 00:00:00,-133.51878,68.32029,25.441603349649075
0,0,2016-10-11 00:00:00,-133.51878,68.32029,41.572926526011834
0,0,2016-10-12 00:00:00,-133.51878,68.32029,22.03903670115301
0,0,2016-10-13 00:00:00,-133.51878,68.32029,18.777351727972704
0,0,2016-10-14 00:00:00,-133.51878,68.32029,17.54784392061075
0,0,2016-10-15 00:00:00,-133.51878,68.32029,1.1115448941823922
0,0,2016-10-16 00:00:00,-133.51878,68.32029,9.444607423327207
0,0,2016-10-17 00:00:00,-133.51878,68.32029,27.845861220046558
0,0,2016-10-18 00:00:00,-133.51878,68.32029,31.95531058611948
0,0,2016-10-19 00:00:00,-133.51878,68.32029,21.55771815976787
0,0,2016-10-20 00:00:00,-133.51878,68.32029,10.898310644262354
0,0,2016-10-21 00:00:00,-133.51878,68.32029,3.694296744194707
0,0,2016-10-22 00:00:00,-133.51878,68.32029,15.345289566731523
0,0,2016-10-23 00:00:00,-133.51878,68.32029,10.280400543585834
0,0,2016-10-24 00:00:00,-133.51878,68.32029,16.470667909361953
0,0,2016-10-25 00:00:00,-133.51878,68.32029,7.495263817126927
0,0,2016-10-26 00:00:00,-133.51878,68.32029,3.5653389672172646
0,0,2016-10-27 00:00:00,-133.51878,68.32029,13.54674731806697
0,0,2016-10-28 00:00:00,-133.51878,68.32029,9.063619739697545
0,0,2016-10-29 00:00:00,-133.51878,68.32029,-3.2375475154653466
0,0,2016-10-30 00:00:00,-133.51878,68.32029,-20.8496848350264
0,0,2016-10-31 00:00:00,-133.51878,68.32029,2.692374993435239
0,0,2016-11-01 00:00:00,-133.51878,68.32029,11.956047736049912
0,0,2016-11-02 00:00:00,-133.51878,68.32029,15.950410905266027
0,0,2016-11-03 00:00:00,-133.51878,68.32029,9.846296975813773
0,0,2016-11-04 00:00:00,-133.51878,68.32029,7.624118508034347
0,0,2016-11-05 00:00:00,-133.51878,68.32029,6.565328395501608
0,0,2016-11-06 00:00:00,-133.51878,68.32029,5.435791142497524
0,0,2016-11-07 00:00:00,-133.51878,68.32029,18.05795797950175
0,0,2016-11-08 00:00:00,-133.51878,68.32029,6.343813943489546
0,0,2016-11-09 00:00:00,-133.51878,68.32029,5.3975551671815785
0,0,2016-11-10 00:00:00,-133.51878,68.32029,-0.376932800342717
0,0,2016-11-11 00:00:00,-133.51878,68.32029,3.8380738723256065
0,0,2016-11-12 00:00:00,-133.51878,68.32029,3.666884489781578
0,0,2016-11-13 00:00:00,-133.51878,68.32029,4.2078958625462475
0,0,2016-11-14 00:00:00,-133.51878,68.32029,1.1200818507365684
0,0,2016-11-15 00:00:00,-133.51878,68.32029,2.819625188614705
0,0,2016-11-16 00:00:00,-133.51878,68.32029,3.5381743636908696
0,0,2016-11-17 00:00:00,-133.51878,68.32029,5.307985824926248
0,0,2016-11-18 00:00:00,-133.51878,68.32029,6.894740714794394
0,0,2016-11-19 00:00:00,-133.51878,68.32029,8.806064776096328
0,0,2016-11-20 00:00:00,-133.51878,68.32029,6.571976301601398
0,0,2016-11-21 00:00:00,-133.51878,68.32029,6.874650909308575
0,0,2016-11-22 00:00:00,-133.51878,68.32029,4.498286205437926
0,0,2016-11-23 00:00:00,-133.51878,68.32029,1.9344132730744272
0,0,2016-11-24 00:00:00,-133.51878,68.32029,1.3184812050922499
0,0,2016-11-25 00:00:00,-133.51878,68.32029,4.565361937438888
0,0,2016-11-26 00:00:00,-133.51878,68.32029,5.465305610554633
0,0,2016-11-27 00:00:00,-133.51878,68.32029,4.671777365312749
0,0,2016-11-28 00:00:00,-133.51878,68.32029,1.1037355589836486
0,0,2016-11-29 00:00:00,-133.51878,68.32029,3.119802259094863
0,0,2016-11-30 00:00:00,-133.51878,68.32029,4.878347286977946
0,0,2016-12-01 00:00:00,-133.51878,68.32029,4.087501989937439
0,0,2016-12-02 00:00:00,-133.51878,68.32029,5.401666713237304
0,0,2016-12-03 00:00:00,-133.51878,68.32029,3.971517643244054
0,0,2016-12-04 00:00:00,-133.51878,68.32029,16.3702080923895
0,0,2016-12-05 00:00:00,-133.51878,68.32029,6.32071546666234
0,0,2016-12-06 00:00:00,-133.51878,68.32029,-5.027593980855976
0,0,2016-12-07 00:00:00,-133.51878,68.32029,3.3261094684237165
0,0,2016-12-08 00:00:00,-133.51878,68.32029,22.654616350101445
0,0,2016-12-09 00:00:00,-133.51878,68.32029,9.047274599915513
0,0,2016-12-10 00:00:00,-133.51878,68.32029,2.0600797223416936
0,0,2016-12-11 00:00:00,-133.51878,68.32029,0.2898839826368736
0,0,2016-12-12 00:00:00,-133.51878,68.32029,-6.88338968090969
0,0,2016-12-13 00:00:00,-133.51878,68.32029,-2.229454693983635
0,0,2016-12-14 00:00:00,-133.51878,68.32029,5.343921507015124
0,0,2016-12-15 00:00:00,-133.51878,68.32029,8.14176236378141
0,0,2016-12-16 00:00:00,-133.51878,68.32029,-4.09296896517728
0,0,2016-12-17 00:00:00,-133.51878,68.32029,-8.737121911981175
0,0,2016-12-18 00:00:00,-133.51878,68.32029,-9.950553400063383
0,0,2016-12-19 00:00:00,-133.51878,68.32029,-6.947477083114138
0,0,2016-12-20 00:00:00,-133.51878,68.32029,-5.770105052309302
0,0,2016-12-21 00:00:00,-133.51878,68.32029,-5.148672930423435
0,0,2016-12-22 00:00:00,-133.51878,68.32029,-1.6350392146020238
0,0,2016-12-23 00:00:00,-133.51878,68.32029,1.9057656935586575
0,0,2016-12-24 00:00:00,-133.51878,68.32029,0.19873089246297027
0,0,2016-12-25 00:00:00,-133.51878,68.32029,-4.728544048654359
0,0,2016-12-26 00:00:00,-133.51878,68.32029,9.111925130151581
0,0,2016-12-27 00:00:00,-133.51878,68.32029,15.923443700352754
0,0,2016-12-28 00:00:00,-133.51878,68.32029,-4.700653967336809
0,0,2016-12-29 00:00:00,-133.51878,68.32029,-16.238448071697068
0,0,2016-12-30 00:00:00,-133.51878,68.32029,-8.86317989554818
0,0,2016-12-31 00:00:00,-133.51878,68.32029,-6.035629911069591
0,0,2017-01-01 00:00:00,-133.51878,68.32029,1.7720567484684164
0,0,2017-01-02 00:00:00,-133.51878,68.32029,-3.4929260059807157
0,0,2017-01-03 00:00:00,-133.51878,68.32029,-5.055137438424695
0,0,2017-01-04 00:00:00,-133.51878,68.32029,-37.92538258409274
0,0,2017-01-05 00:00:00,-133.51878,68.32029,-11.650481111402174
0,0,2017-01-06 00:00:00,-133.51878,68.32029,-7.768101879412558
0,0,2017-01-07 00:00:00,-133.51878,68.32029,-4.426165458464717
0,0,2017-01-08 00:00:00,-133.51878,68.32029,-15.571035197941258
0,0,2017-01-09 00:00:00,-133.51878,68.32029,-9.676967190424808
0,0,2017-01-10 00:00:00,-133.51878,68.32029,-8.945956203687642
0,0,2017-01-11 00:00:00,-133.51878,68.32029,-3.230480166225847
0,0,2017-01-12 00:00:00,-133.51878,68.32029,2.332937539873981
0,0,2017-01-13 00:00:00,-133.51878,68.32029,-1.334082008054778
0,0,2017-01-14 00:00:00,-133.51878,68.32029,5.379218381309342
0,0,2017-01-15 00:00:00,-133.51878,68.32029,9.381391920446076
0,0,2017-01-16 00:00:00,-133.51878,68.32029,-4.387477237640944
0,0,2017-01-17 00:00:00,-133.51878,68.32029,-7.102029179795601
0,0,2017-01-18 00:00:00,-133.51878,68.32029,-2.650826202662861
0,0,2017-01-19 00:00:00,-133.51878,68.32029,-1.4352655072214537
0,0,2017-01-20 00:00:00,-133.51878,68.32029,5.969871309257165
0,0,2017-01-21 00:00:00,-133.51878,68.32029,20.630433272971825
0,0,2017-01-22 00:00:00,-133.51878,68.32029,18.038849755714
0,0,2017-01-23 00:00:00,-133.51878,68.32029,3.830224027450038
0,0,2017-01-24 00:00:00,-133.51878,68.32029,-2.8333169510691096
0,0,2017-01-25 00:00:00,-133.51878,68.32029,-11.562617041359418
0,0,2017-01-26 00:00:00,-133.51878,68.32029,-10.212057988445544
0,0,2017-01-27 00:00:00,-133.51878,68.32029,2.4434223922294467
0,0,2017-01-28 00:00:00,-133.51878,68.32029,-1.509860110021669
0,0,2017-01-29 00:00:00,-133.51878,68.32029,-6.182496542243815
0,0,2017-01-30 00:00:00,-133.51878,68.32029,-7.512327678085402
0,0,2017-01-31 00:00:00,-133.51878,68.32029,-13.033511423089427
0,0,2017-02-01 00:00:00,-133.51878,68.32029,-16.500357812873677
0,0,2017-02-02 00:00:00,-133.51878,68.32029,-16.61937353113653
0,0,2017-02-03 00:00:00,-133.51878,68.32029,-3.352562763066985
0,0,2017-02-04 00:00:00,-133.51878,68.32029,-0.3888233128287089
0,0,2017-02-05 00:00:00,-133.51878,68.32029,11.675033931453017
0,0,2017-02-06 00:00:00,-133.51878,68.32029,9.512884686789958
0,0,2017-02-07 00:00:00,-133.51878,68.32029,13.018071722205766
0,0,2017-02-08 00:00:00,-133.51878,68.32029,9.745818433450427
0,0,2017-02-09 00:00:00,-133.51878,68.32029,22.441762325608313
0,0,2017-02-10 00:00:00,-133.51878,68.32029,19.371877000320197
0,0,2017-02-11 00:00:00,-133.51878,68.32029,5.852478245206978
0,0,2017-02-12 00:00:00,-133.51878,68.32029,-1.3329958289767507
0,0,2017-02-13 00:00:00,-133.51878,68.32029,5.5097948192398
0,0,2017-02-14 00:00:00,-133.51878,68.32029,26.919748497057373
0,0,2017-02-15 00:00:00,-133.51878,68.32029,16.516006624365986
0,0,2017-02-16 00:00:00,-133.51878,68.32029,2.941331629960997
0,0,2017-02-17 00:00:00,-133.51878,68.32029,4.670165142611892
0,0,2017-02-18 00:00:00,-133.51878,68.32029,27.112979034751714
0,0,2017-02-19 00:00:00,-133.51878,68.32029,51.502926111041546
0,0,2017-02-20 00:00:00,-133.51878,68.32029,25.86818164421098
0,0,2017-02-21 00:00:00,-133.51878,68.32029,-0.5812660477574748
0,0,2017-02-22 00:00:00,-133.51878,68.32029,4.692966733962874
0,0,2017-02-23 00:00:00,-133.51878,68.32029,13.56197239462957
0,0,2017-02-24 00:00:00,-133.51878,68.32029,32.46252445077449
0,0,2017-02-25 00:00:00,-133.51878,68.32029,22.464537079054807
0,0,2017-02-26 00:00:00,-133.51878,68.32029,21.4447667785634
0,0,2017-02-27 00:00:00,-133.51878,68.32029,29.18946819618202
0,0,2017-02-28 00:00:00,-133.51878,68.32029,3.2560054876190065
0,0,2017-03-01 00:00:00,-133.51878,68.32029,50.250690614541945
0,0,2017-03-02 00:00:00,-133.51878,68.32029,28.563369448028496
0,0,2017-03-03 00:00:00,-133.51878,68.32029,45.677747490832616
0,0,2017-03-04 00:00:00,-133.51878,68.32029,50.623423742637264
0,0,2017-03-05 00:00:00,-133.51878,68.32029,40.77158323111683
0,0,2017-03-06 00:00:00,-133.51878,68.32029,9.663869935722959
0,0,2017-03-07 00:00:00,-133.51878,68.32029,0.10439025465791363
0,0,2017-03-08 00:00:00,-133.51878,68.32029,9.000282764660133
0,0,2017-03-09 00:00:00,-133.51878,68.32029,3.557891814372161
0,0,2017-03-10 00:00:00,-133.51878,68.32029,1.0031050748393568
0,0,2017-03-11 00:00:00,-133.51878,68.32029,17.016536901173286
0,0,2017-03-12 00:00:00,-133.51878,68.32029,12.062914884904089
0,0,2017-03-13 00:00:00,-133.51878,68.32029,3.4266939244937036
0,0,2017-03-14 00:00:00,-133.51878,68.32029,7.898175183128572
0,0,2017-03-15 00:00:00,-133.51878,68.32029,4.4977024944965365
0,0,2017-03-16 00:00:00,-133.51878,68.32029,13.757218399639468
0,0,2017-03-17 00:00:00,-133.51878,68.32029,21.0227380324702
0,0,2017-03-18 00:00:00,-133.51878,68.32029,9.754104121675002
0,0,2017-03-19 00:00:00,-133.51878,68.32029,13.93549770197989
0,0,2017-03-20 00:00:00,-133.51878,68.32029,17.786143474179934
0,0,2017-03-21 00:00:00,-133.51878,68.32029,21.922041376098107
0,0,2017-03-22 00:00:00,-133.51878,68.32029,44.904671569809665
0,0,2017-03-23 00:00:00,-133.51878,68.32029,20.342838429562793
0,0,2017-03-24 00:00:00,-133.51878,68.32029,2.156488572256074
0,0,2017-03-25 00:00:00,-133.51878,68.32029,27.298633286377846
0,0,2017-03-26 00:00:00,-133.51878,68.32029,28.639963243149378
0,0,2017-03-27 00:00:00,-133.51878,68.32029,5.486492973211031
0,0,2017-03-28 00:00:00,-133.51878,68.32029,9.133423959930607
0,0,2017-03-29 00:00:00,-133.51878,68.32029,26.107398412853495
0,0,2017-03-30 00:00:00,-133.51878,68.32029,50.111482396447265
0,0,2017-03-31 00:00:00,-133.51878,68.32029,30.73488215384631
0,0,2017-04-01 00:00:00,-133.51878,68.32029,31.521595670192188
0,0,2017-04-02 00:00:00,-133.51878,68.32029,38.00969983074881
0,0,2017-04-03 00:00:00,-133.51878,68.32029,22.025190388572643
0,0,2017-04-04 00:00:00,-133.51878,68.32029,11.827607736245254
0,0,2017-04-05 00:00:00,-133.51878,68.32029,28.072364544693656
0,0,2017-04-06 00:00:00,-133.51878,68.32029,37.132319064024706
0,0,2017-04-07 00:00:00,-133.51878,68.32029,5.7958677206646
0,0,2017-04-08 00:00:00,-133.51878,68.32029,7.86974605362652
0,0,2017-04-09 00:00:00,-133.51878,68.32029,12.23078958309682
0,0,2017-04-10 00:00:00,-133.51878,68.32029,29.431575417162616
0,0,2017-04-11 00:00:00,-133.51878,68.32029,37.153365808718746
0,0,2017-04-12 00:00:00,-133.51878,68.32029,33.50285394740556
0,0,2017-04-13 00:00:00,-133.51878,68.32029,44.50098576607309
0,0,2017-04-14 00:00:00,-133.51878,68.32029,34.586824073365996
0,0,2017-04-15 00:00:00,-133.51878,68.32029,37.426907027892
0,0,2017-04-16 00:00:00,-133.51878,68.32029,34.50890047345897
0,0,2017-04-17 00:00:00,-133.51878,68.32029,39.43622645218137
0,0,2017-04-18 00:00:00,-133.51878,68.32029,52.035635215846476
0,0,2017-04-19 00:00:00,-133.51878,68.32029,7.532880863206583
0,0,2017-04-20 00:00:00,-133.51878,68.32029,15.399128137241137
0,0,2017-04-21 00:00:00,-133.51878,68.32029,22.411015783852147
0,0,2017-04-22 00:00:00,-133.51878,68.32029,24.968257400229863
0,0,2017-04-23 00:00:00,-133.51878,68.32029,44.54596063004514
0,0,2017-04-24 00:00:00,-133.51878,68.32029,63.66401874826985
0,0,2017-04-25 00:00:00,-133.51878,68.32029,53.25064860439775
0,0,2017-04-26 00:00:00,-133.51878,68.32029,21.26650477567895
0,0,2017-04-27 00:00:00,-133.51878,68.32029,27.80593647517746
0,0,2017-04-28 00:00:00,-133.51878,68.32029,21.39210220162546
0,0,2017-04-29 00:00:00,-133.51878,68.32029,21.0244644776088
0,0,2017-04-30 00:00:00,-133.51878,68.32029,17.517255195808904
0,0,2017-05-01 00:00:00,-133.51878,68.32029,19.321353937043195
0,0,2017-05-02 00:00:00,-133.51878,68.32029,28.81150013320352
0,0,2017-05-03 00:00:00,-133.51878,68.32029,93.40385046649756
0,0,2017-05-04 00:00:00,-133.51878,68.32029,42.38576221322456
0,0,2017-05-05 00:00:00,-133.51878,68.32029,17.268165386044505
0,0,2017-05-06 00:00:00,-133.51878,68.32029,67.5798748215508
0,0,2017-05-07 00:00:00,-133.51878,68.32029,116.66184858121365
0,0,2017-05-08 00:00:00,-133.51878,68.32029,93.27733656015734
0,0,2017-05-09 00:00:00,-133.51878,68.32029,124.02157433439514
0,0,2017-05-10 00:00:00,-133.51878,68.32029,96.9829575786219
0,0,2017-05-11 00:00:00,-133.51878,68.32029,85.25537512222785
0,0,2017-05-12 00:00:00,-133.51878,68.32029,72.82667848950355
0,0,2017-05-13 00:00:00,-133.51878,68.32029,95.13177486811473
0,0,2017-05-14 00:00:00,-133.51878,68.32029,80.03435335699363
0,0,2017-05-15 00:00:00,-133.51878,68.32029,69.38738933756238
0,0,2017-05-16 00:00:00,-133.51878,68.32029,78.88166945157002
0,0,2017-05-17 00:00:00,-133.51878,68.32029,93.17472171357474
0,0,2017-05-18 00:00:00,-133.51878,68.32029,103.91488917962403
0,0,2017-05-19 00:00:00,-133.51878,68.32029,98.7573409486199
0,0,2017-05-20 00:00:00,-133.51878,68.32029,85.54796916863091
0,0,2017-05-21 00:00:00,-133.51878,68.32029,118.92989336186666
0,0,2017-05-22 00:00:00,-133.51878,68.32029,18.020483820801662
0,0,2017-05-23 00:00:00,-133.51878,68.32029,41.17349198992621
0,0,2017-05-24 00:00:00,-133.51878,68.32029,131.04037567785798
0,0,2017-05-25 00:00:00,-133.51878,68.32029,100.71135526489913
0,0,2017-05-26 00:00:00,-133.51878,68.32029,-5.135551946872673
0,0,2017-05-27 00:00:00,-133.51878,68.32029,58.93708354311721
0,0,2017-05-28 00:00:00,-133.51878,68.32029,81.92915497159119
0,0,2017-05-29 00:00:00,-133.51878,68.32029,78.47516283966097
0,0,2017-05-30 00:00:00,-133.51878,68.32029,128.83480835283152
0,0,2017-05-31 00:00:00,-133.51878,68.32029,52.100634684568796
0,0,2017-06-01 00:00:00,-133.51878,68.32029,106.43789734944342
0,0,2017-06-02 00:00:00,-133.51878,68.32029,98.0208523221945
0,0,2017-06-03 00:00:00,-133.51878,68.32029,100.40211802729783
0,0,2017-06-04 00:00:00,-133.51878,68.32029,131.89114368562906
0,0,2017-06-05 00:00:00,-133.51878,68.32029,140.21912277287248
0,0,2017-06-06 00:00:00,-133.51878,68.32029,122.82435190410082
0,0,2017-06-07 00:00:00,-133.51878,68.32029,72.96434685236993
0,0,2017-06-08 00:00:00,-133.51878,68.32029,159.63662291242264
0,0,2017-06-09 00:00:00,-133.51878,68.32029,90.9287194467828
0,0,2017-06-10 00:00:00,-133.51878,68.32029,137.30987276611532
0,0,2017-06-11 00:00:00,-133.51878,68.32029,135.24316349594554
0,0,2017-06-12 00:00:00,-133.51878,68.32029,57.137514614255934
0,0,2017-06-13 00:00:00,-133.51878,68.32029,41.630363078009374
0,0,2017-06-14 00:00:00,-133.51878,68.32029,63.38294224254449
0,0,2017-06-15 00:00:00,-133.51878,68.32029,68.24652373498107
0,0,2017-06-16 00:00:00,-133.51878,68.32029,92.20402214772314
0,0,2017-06-17 00:00:00,-133.51878,68.32029,57.51522286876996
0,0,2017-06-18 00:00:00,-133.51878,68.32029,9.66089516360801
0,0,2017-06-19 00:00:00,-133.51878,68.32029,62.478822106094604
0,0,2017-06-20 00:00:00,-133.51878,68.32029,115.08882308354885
0,0,2017-06-21 00:00:00,-133.51878,68.32029,35.43123904417269
0,0,2017-06-22 00:00:00,-133.51878,68.32029,48.5409391338679
0,0,2017-06-23 00:00:00,-133.51878,68.32029,69.29659928865446
0,0,2017-06-24 00:00:00,-133.51878,68.32029,94.9360775576554
0,0,2017-06-25 00:00:00,-133.51878,68.32029,41.49071111819071
0,0,2017-06-26 00:00:00,-133.51878,68.32029,7.073447606967254
0,0,2017-06-27 00:00:00,-133.51878,68.32029,-12.09281623469902
0,0,2017-06-28 00:00:00,-133.51878,68.32029,4.66416448533676
0,0,2017-06-29 00:00:00,-133.51878,68.32029,53.029309648803
0,0,2017-06-30 00:00:00,-133.51878,68.32029,53.309781477099556
0,0,2017-07-01 00:00:00,-133.51878,68.32029,65.67385497334509
0,0,2017-07-02 00:00:00,-133.51878,68.32029,151.23486868576433
0,0,2017-07-03 00:00:00,-133.51878,68.32029,14.923318951785303
0,0,2017-07-04 00:00:00,-133.51878,68.32029,52.007783517630976
0,0,2017-07-05 00:00:00,-133.51878,68.32029,23.89583712686939
0,0,2017-07-06 00:00:00,-133.51878,68.32029,40.95933119267903
0,0,2017-07-07 00:00:00,-133.51878,68.32029,64.31015622147767
0,0,2017-07-08 00:00:00,-133.51878,68.32029,15.922116275655076
0,0,2017-07-09 00:00:00,-133.51878,68.32029,34.91197060252371
0,0,2017-07-10 00:00:00,-133.51878,68.32029,54.20602376852627
0,0,2017-07-11 00:00:00,-133.51878,68.32029,47.75095142662348
0,0,2017-07-12 00:00:00,-133.51878,68.32029,64.40328010470043
0,0,2017-07-13 00:00:00,-133.51878,68.32029,43.498151931153835
0,0,2017-07-14 00:00:00,-133.51878,68.32029,112.59563737771562
0,0,2017-07-15 00:00:00,-133.51878,68.32029,-1.6782614967897616
0,0,2017-07-16 00:00:00,-133.51878,68.32029,79.2647642757655
0,0,2017-07-17 00:00:00,-133.51878,68.32029,83.09265792751198
0,0,2017-07-18 00:00:00,-133.51878,68.32029,62.15210078821005
0,0,2017-07-19 00:00:00,-133.51878,68.32029,111.64965169292007
0,0,2017-07-20 00:00:00,-133.51878,68.32029,82.90038394399723
0,0,2017-07-21 00:00:00,-133.51878,68.32029,12.802515354761198
0,0,2017-07-22 00:00:00,-133.51878,68.32029,24.590708518108446
0,0,2017-07-23 00:00:00,-133.51878,68.32029,64.93844175863036
0,0,2017-07-24 00:00:00,-133.51878,68.32029,25.145733220878622
0,0,2017-07-25 00:00:00,-133.51878,68.32029,17.258269925003955
0,0,2017-07-26 00:00:00,-133.51878,68.32029,51.560976378544915
0,0,2017-07-27 00:00:00,-133.51878,68.32029,47.67578269801371
0,0,2017-07-28 00:00:00,-133.51878,68.32029,48.48961397313107
0,0,2017-07-29 00:00:00,-133.51878,68.32029,93.70079749423796
0,0,2017-07-30 00:00:00,-133.51878,68.32029,11.888303657910093
0,0,2017-07-31 00:00:00,-133.51878,68.32029,12.903933172322288
0,0,2017-08-01 00:00:00,-133.51878,68.32029,41.77973167562295
0,0,2017-08-02 00:00:00,-133.51878,68.32029,42.75548809729173
0,0,2017-08-03 00:00:00,-133.51878,68.32029,89.00968591239547
0,0,2017-08-04 00:00:00,-133.51878,68.32029,-14.781742559078184
0,0,2017-08-05 00:00:00,-133.51878,68.32029,45.05287929758029
0,0,2017-08-06 00:00:00,-133.51878,68.32029,48.91136771217194
0,0,2017-08-07 00:00:00,-133.51878,68.32029,69.4674197652223
0,0,2017-08-08 00:00:00,-133.51878,68.32029,19.082695868947695
0,0,2017-08-09 00:00:00,-133.51878,68.32029,42.5824256097682
0,0,2017-08-10 00:00:00,-133.51878,68.32029,65.80374196054242
0,0,2017-08-11 00:00:00,-133.51878,68.32029,3.6783006157130664
0,0,2017-08-12 00:00:00,-133.51878,68.32029,100.58914231284255
0,0,2017-08-13 00:00:00,-133.51878,68.32029,41.16025691133805
0,0,2017-08-14 00:00:00,-133.51878,68.32029,-4.853444804485924
0,0,2017-08-15 00:00:00,-133.51878,68.32029,12.5255831859567
0,0,2017-08-16 00:00:00,-133.51878,68.32029,93.01277325699948
0,0,2017-08-17 00:00:00,-133.51878,68.32029,23.04778289853631
0,0,2017-08-18 00:00:00,-133.51878,68.32029,52.01439514116229
0,0,2017-08-19 00:00:00,-133.51878,68.32029,80.30887989192367
0,0,2017-08-20 00:00:00,-133.51878,68.32029,40.238551622168266
0,0,2017-08-21 00:00:00,-133.51878,68.32029,65.46805134934645
0,0,2017-08-22 00:00:00,-133.51878,68.32029,11.406918231457164
0,0,2017-08-23 00:00:00,-133.51878,68.32029,48.64619454752085
0,0,2017-08-24 00:00:00,-133.51878,68.32029,88.52041973203654
0,0,2017-08-25 00:00:00,-133.51878,68.32029,38.71583957210493
0,0,2017-08-26 00:00:00,-133.51878,68.32029,10.864414409353058
0,0,2017-08-27 00:00:00,-133.51878,68.32029,-4.241449038187395
0,0,2017-08-28 00:00:00,-133.51878,68.32029,75.29886791643919
0,0,2017-08-29 00:00:00,-133.51878,68.32029,29.474533416403546
0,0,2017-08-30 00:00:00,-133.51878,68.32029,2.85831641584204
0,0,2017-08-31 00:00:00,-133.51878,68.32029,13.918770594725492
0,0,2017-09-01 00:00:00,-133.51878,68.32029,31.368058270746435
0,0,2017-09-02 00:00:00,-133.51878,68.32029,12.673883806268819
0,0,2017-09-03 00:00:00,-133.51878,68.32029,18.10590704402498
0,0,2017-09-04 00:00:00,-133.51878,68.32029,21.297975052147088
0,0,2017-09-05 00:00:00,-133.51878,68.32029,55.47183715048931
0,0,2017-09-06 00:00:00,-133.51878,68.32029,7.782036400212884
0,0,2017-09-07 00:00:00,-133.51878,68.32029,11.02198099708545
0,0,2017-09-08 00:00:00,-133.51878,68.32029,43.3472894767904
0,0,2017-09-09 00:00:00,-133.51878,68.32029,11.989348896496743
0,0,2017-09-10 00:00:00,-133.51878,68.32029,23.74871760987342
0,0,2017-09-11 00:00:00,-133.51878,68.32029,4.378877931686134
0,0,2017-09-12 00:00:00,-133.51878,68.32029,26.289184866419134
0,0,2017-09-13 00:00:00,-133.51878,68.32029,20.31859697931291
0,0,2017-09-14 00:00:00,-133.51878,68.32029,39.608539173670984
0,0,2017-09-15 00:00:00,-133.51878,68.32029,11.819776486425603
0,0,2017-09-16 00:00:00,-133.51878,68.32029,14.72759627870869
0,0,2017-09-17 00:00:00,-133.51878,68.32029,29.07244002361321
0,0,2017-09-18 00:00:00,-133.51878,68.32029,59.63743001381834
0,0,2017-09-19 00:00:00,-133.51878,68.32029,44.93905905280419
0,0,2017-09-20 00:00:00,-133.51878,68.32029,8.336824791412097
0,0,2017-09-21 00:00:00,-133.51878,68.32029,2.645322630211382
0,0,2017-09-22 00:00:00,-133.51878,68.32029,7.883847182974708
0,0,2017-09-23 00:00:00,-133.51878,68.32029,8.372458819756913
0,0,2017-09-24 00:00:00,-133.51878,68.32029,5.0117178736573775
0,0,2017-09-25 00:00:00,-133.51878,68.32029,-1.6219115840191547
0,0,2017-09-26 00:00:00,-133.51878,68.32029,-6.3478538000821265
0,0,2017-09-27 00:00:00,-133.51878,68.32029,51.678747123335704
0,0,2017-09-28 00:00:00,-133.51878,68.32029,5.005231067148213
0,0,2017-09-29 00:00:00,-133.51878,68.32029,-0.6390483135037193
0,0,2017-09-30 00:00:00,-133.51878,68.32029,12.955219252771505
0,0,2017-10-01 00:00:00,-133.51878,68.32029,3.8753667024099436
0,0,2017-10-02 00:00:00,-133.51878,68.32029,7.381027768466944
0,0,2017-10-03 00:00:00,-133.51878,68.32029,-1.34999691143481
0,0,2017-10-04 00:00:00,-133.51878,68.32029,0.13856112555638547
0,0,2017-10-05 00:00:00,-133.51878,68.32029,10.924193741015145
0,0,2017-10-06 00:00:00,-133.51878,68.32029,17.157993071817543
0,0,2017-10-07 00:00:00,-133.51878,68.32029,4.554315211755278
0,0,2017-10-08 00:00:00,-133.51878,68.32029,5.865473757719563
0,0,2017-10-09 00:00:00,-133.51878,68.32029,-0.3136966993624749
0,0,2017-10-10 00:00:00,-133.51878,68.32029,25.230725317714825
0,0,2017-10-11 00:00:00,-133.51878,68.32029,6.8060149274310575
0,0,2017-10-12 00:00:00,-133.51878,68.32029,22.83878939843544
0,0,2017-10-13 00:00:00,-133.51878,68.32029,10.087695548331022
0,0,2017-10-14 00:00:00,-133.51878,68.32029,18.887711213386602
0,0,2017-10-15 00:00:00,-133.51878,68.32029,22.146458405983193
0,0,2017-10-16 00:00:00,-133.51878,68.32029,27.361862349423017
0,0,2017-10-17 00:00:00,-133.51878,68.32029,7.492561704613935
0,0,2017-10-18 00:00:00,-133.51878,68.32029,17.742449680919965
0,0,2017-10-19 00:00:00,-133.51878,68.32029,12.869356142045573
0,0,2017-10-20 00:00:00,-133.51878,68.32029,15.887612818093373
0,0,2017-10-21 00:00:00,-133.51878,68.32029,14.400699752565389
0,0,2017-10-22 00:00:00,-133.51878,68.32029,8.017017527897574
0,0,2017-10-23 00:00:00,-133.51878,68.32029,11.087318763169089
0,0,2017-10-24 00:00:00,-133.51878,68.32029,8.060100944147981
0,0,2017-10-25 00:00:00,-133.51878,68.32029,5.569191586113642
0,0,2017-10-26 00:00:00,-133.51878,68.32029,7.403660471492533
0,0,2017-10-27 00:00:00,-133.51878,68.32029,1.105290038751379
0,0,2017-10-28 00:00:00,-133.51878,68.32029,3.797878642547935
0,0,2017-10-29 00:00:00,-133.51878,68.32029,19.045643926527816
0,0,2017-10-30 00:00:00,-133.51878,68.32029,3.4649180931284467
0,0,2017-10-31 00:00:00,-133.51878,68.32029,1.513667528449622
0,0,2017-11-01 00:00:00,-133.51878,68.32029,0.24109002819232891
0,0,2017-11-02 00:00:00,-133.51878,68.32029,-7.941482133639155
0,0,2017-11-03 00:00:00,-133.51878,68.32029,-3.1081520012810273
0,0,2017-11-04 00:00:00,-133.51878,68.32029,-2.332424829066188
0,0,2017-11-05 00:00:00,-133.51878,68.32029,-3.1889310513914104
0,0,2017-11-06 00:00:00,-133.51878,68.32029,-3.795623381458346
0,0,2017-11-07 00:00:00,-133.51878,68.32029,-1.956104934584153
0,0,2017-11-08 00:00:00,-133.51878,68.32029,-1.3313852446790777
0,0,2017-11-09 00:00:00,-133.51878,68.32029,4.58285390377378
0,0,2017-11-10 00:00:00,-133.51878,68.32029,2.192436839987109
0,0,2017-11-11 00:00:00,-133.51878,68.32029,-1.2670793380721308
0,0,2017-11-12 00:00:00,-133.51878,68.32029,-1.9157044333817346
0,0,2017-11-13 00:00:00,-133.51878,68.32029,-3.503219620978433
0,0,2017-11-14 00:00:00,-133.51878,68.32029,-0.4336496319098315
0,0,2017-11-15 00:00:00,-133.51878,68.32029,0.2915055346185941
0,0,2017-11-16 00:00:00,-133.51878,68.32029,1.835873442351313
0,0,2017-11-17 00:00:00,-133.51878,68.32029,3.7819031272400943
0,0,2017-11-18 00:00:00,-133.51878,68.32029,2.540110949506458
0,0,2017-11-19 00:00:00,-133.51878,68.32029,4.878929283909347
0,0,2017-11-20 00:00:00,-133.51878,68.32029,7.000515731133723
0,0,2017-11-21 00:00:00,-133.51878,68.32029,5.247349684455293
0,0,2017-11-22 00:00:00,-133.51878,68.32029,0.9410287586798596
0,0,2017-11-23 00:00:00,-133.51878,68.32029,0.35598704227455497
0,0,2017-11-24 00:00:00,-133.51878,68.32029,4.003055184699962
0,0,2017-11-25 00:00:00,-133.51878,68.32029,-4.115445157175301
0,0,2017-11-26 00:00:00,-133.51878,68.32029,-4.017733883566449
0,0,2017-11-27 00:00:00,-133.51878,68.32029,-2.48416570961305
0,0,2017-11-28 00:00:00,-133.51878,68.32029,-1.9983466285256002
0,0,2017-11-29 00:00:00,-133.51878,68.32029,8.05828287287557
0,0,2017-11-30 00:00:00,-133.51878,68.32029,1.0686090207269174
0,0,2017-12-01 00:00:00,-133.51878,68.32029,2.9680905228760577
0,0,2017-12-02 00:00:00,-133.51878,68.32029,5.129240744242954
0,0,2017-12-03 00:00:00,-133.51878,68.32029,-1.5282421480084842
0,0,2017-12-04 00:00:00,-133.51878,68.32029,1.8498298399888522
0,0,2017-12-05 00:00:00,-133.51878,68.32029,0.043828588698516545
0,0,2017-12-06 00:00:00,-133.51878,68.32029,-4.930868796538239
0,0,2017-12-07 00:00:00,-133.51878,68.32029,-3.693642309020378
0,0,2017-12-08 00:00:00,-133.51878,68.32029,12.420745284801619
0,0,2017-12-09 00:00:00,-133.51878,68.32029,5.761833288698124
0,0,2017-12-10 00:00:00,-133.51878,68.32029,-3.6455343896211474
0,0,2017-12-11 00:00:00,-133.51878,68.32029,6.484148078974599
0,0,2017-12-12 00:00:00,-133.51878,68.32029,2.950240919227589
0,0,2017-12-13 00:00:00,-133.51878,68.32029,5.406745323033353
0,0,2017-12-14 00:00:00,-133.51878,68.32029,6.986854446361478
0,0,2017-12-15 00:00:00,-133.51878,68.32029,-1.2041069006933895
0,0,2017-12-16 00:00:00,-133.51878,68.32029,-4.153456672606834
0,0,2017-12-17 00:00:00,-133.51878,68.32029,1.7717137282664126
0,0,2017-12-18 00:00:00,-133.51878,68.32029,-1.6342487831736026
0,0,2017-12-19 00:00:00,-133.51878,68.32029,-1.3968354051292582
0,0,2017-12-20 00:00:00,-133.51878,68.32029,-3.0387716948992782
0,0,2017-12-21 00:00:00,-133.51878,68.32029,-8.606805732269088
0,0,2017-12-22 00:00:00,-133.51878,68.32029,-16.465347056917775
0,0,2017-12-23 00:00:00,-133.51878,68.32029,-5.7099216170414095
0,0,2017-12-24 00:00:00,-133.51878,68.32029,-3.319508257281972
0,0,2017-12-25 00:00:00,-133.51878,68.32029,-3.2232868261537657
0,0,2017-12-26 00:00:00,-133.51878,68.32029,-0.05365482775897118
0,0,2017-12-27 00:00:00,-133.51878,68.32029,-3.8663440073685287
0,0,2017-12-28 00:00:00,-133.51878,68.32029,0.3822556734263735
0,0,2017-12-29 00:00:00,-133.51878,68.32029,2.037907573262238
0,0,2017-12-30 00:00:00,-133.51878,68.32029,1.6325905716931712
0,0,2017-12-31 00:00:00,-133.51878,68.32029,-3.9360158448903793
0,0,2018-01-01 00:00:00,-133.51878,68.32029,-7.368982116469502
0,0,2018-01-02 00:00:00,-133.51878,68.32029,-1.8111232449601165
0,0,2018-01-03 00:00:00,-133.51878,68.32029,1.574840696345717
0,0,2018-01-04 00:00:00,-133.51878,68.32029,-2.8805570881545806
0,0,2018-01-05 00:00:00,-133.51878,68.32029,-5.362207594412431
0,0,2018-01-06 00:00:00,-133.51878,68.32029,-5.538136578131639
0,0,2018-01-07 00:00:00,-133.51878,68.32029,-4.006173324887273
0,0,2018-01-08 00:00:00,-133.51878,68.32029,-2.147705008796772
0,0,2018-01-09 00:00:00,-133.51878,68.32029,0.8907728204529631
0,0,2018-01-10 00:00:00,-133.51878,68.32029,0.9935689065666069
0,0,2018-01-11 00:00:00,-133.51878,68.32029,-2.45077993574291
0,0,2018-01-12 00:00:00,-133.51878,68.32029,7.616533806171467
0,0,2018-01-13 00:00:00,-133.51878,68.32029,0.9470602866516308
0,0,2018-01-14 00:00:00,-133.51878,68.32029,-2.5940565391049613
0,0,2018-01-15 00:00:00,-133.51878,68.32029,3.8068768163245363
0,0,2018-01-16 00:00:00,-133.51878,68.32029,3.1805875516115663
0,0,2018-01-17 00:00:00,-133.51878,68.32029,-1.8377767199149122
0,0,2018-01-18 00:00:00,-133.51878,68.32029,3.012941756459554
0,0,2018-01-19 00:00:00,-133.51878,68.32029,1.9954448025618479
0,0,2018-01-20 00:00:00,-133.51878,68.32029,-4.706081464578518
0,0,2018-01-21 00:00:00,-133.51878,68.32029,1.2699202075106446
0,0,2018-01-22 00:00:00,-133.51878,68.32029,9.572331170766317
0,0,2018-01-23 00:00:00,-133.51878,68.32029,14.236840032215971
0,0,2018-01-24 00:00:00,-133.51878,68.32029,-1.6779118511697273
0,0,2018-01-25 00:00:00,-133.51878,68.32029,-3.5735435860117417
0,0,2018-01-26 00:00:00,-133.51878,68.32029,-2.995509192087557
0,0,2018-01-27 00:00:00,-133.51878,68.32029,-2.794365451333752
0,0,2018-01-28 00:00:00,-133.51878,68.32029,-0.14552370864219671
0,0,2018-01-29 00:00:00,-133.51878,68.32029,3.636034168295939
0,0,2018-01-30 00:00:00,-133.51878,68.32029,5.705111915018061
0,0,2018-01-31 00:00:00,-133.51878,68.32029,-2.554972655962851
0,0,2018-02-01 00:00:00,-133.51878,68.32029,1.8292445756286948
0,0,2018-02-02 00:00:00,-133.51878,68.32029,3.1317054538180993
0,0,2018-02-03 00:00:00,-133.51878,68.32029,-1.689297826118273
0,0,2018-02-04 00:00:00,-133.51878,68.32029,-6.940367007119889
0,0,2018-02-05 00:00:00,-133.51878,68.32029,-2.7795846104163626
0,0,2018-02-06 00:00:00,-133.51878,68.32029,2.7214772225802863
0,0,2018-02-07 00:00:00,-133.51878,68.32029,12.516443510487791
0,0,2018-02-08 00:00:00,-133.51878,68.32029,10.836252256258105
0,0,2018-02-09 00:00:00,-133.51878,68.32029,16.189307853907668
0,0,2018-02-10 00:00:00,-133.51878,68.32029,17.282529701401227
0,0,2018-02-11 00:00:00,-133.51878,68.32029,9.475703885070192
0,0,2018-02-12 00:00:00,-133.51878,68.32029,18.46665858211117
0,0,2018-02-13 00:00:00,-133.51878,68.32029,0.9888730068761623
0,0,2018-02-14 00:00:00,-133.51878,68.32029,17.7914723651912
0,0,2018-02-15 00:00:00,-133.51878,68.32029,10.88290395595457
0,0,2018-02-16 00:00:00,-133.51878,68.32029,-1.8129136050850665
0,0,2018-02-17 00:00:00,-133.51878,68.32029,9.688390238016217
0,0,2018-02-18 00:00:00,-133.51878,68.32029,15.901532582527457
0,0,2018-02-19 00:00:00,-133.51878,68.32029,-9.638534944146748
0,0,2018-02-20 00:00:00,-133.51878,68.32029,-9.665519038407878
0,0,2018-02-21 00:00:00,-133.51878,68.32029,7.9056302288562454
0,0,2018-02-22 00:00:00,-133.51878,68.32029,21.856220680654385
0,0,2018-02-23 00:00:00,-133.51878,68.32029,13.686571992158562
0,0,2018-02-24 00:00:00,-133.51878,68.32029,9.884220679241826
0,0,2018-02-25 00:00:00,-133.51878,68.32029,16.71381547272602
0,0,2018-02-26 00:00:00,-133.51878,68.32029,-2.9688870039831343
0,0,2018-02-27 00:00:00,-133.51878,68.32029,-4.602181189588641
0,0,2018-02-28 00:00:00,-133.51878,68.32029,3.582113753689596
0,0,2018-03-01 00:00:00,-133.51878,68.32029,9.748045317298812
0,0,2018-03-02 00:00:00,-133.51878,68.32029,12.348504851064675
0,0,2018-03-03 00:00:00,-133.51878,68.32029,0.5613220523218959
0,0,2018-03-04 00:00:00,-133.51878,68.32029,1.9064475122815887
0,0,2018-03-05 00:00:00,-133.51878,68.32029,4.898762173835987
0,0,2018-03-06 00:00:00,-133.51878,68.32029,-2.8989429090944534
0,0,2018-03-07 00:00:00,-133.51878,68.32029,-0.2862032962662664
0,0,2018-03-08 00:00:00,-133.51878,68.32029,43.695152811050555
0,0,2018-03-09 00:00:00,-133.51878,68.32029,20.61347096374897
0,0,2018-03-10 00:00:00,-133.51878,68.32029,-1.058068144086821
0,0,2018-03-11 00:00:00,-133.51878,68.32029,8.011804434543365
0,0,2018-03-12 00:00:00,-133.51878,68.32029,5.709695263206137
0,0,2018-03-13 00:00:00,-133.51878,68.32029,8.716134057638055
0,0,2018-03-14 00:00:00,-133.51878,68.32029,-0.8703339928911872
0,0,2018-03-15 00:00:00,-133.51878,68.32029,11.642560140093002
0,0,2018-03-16 00:00:00,-133.51878,68.32029,5.7836810731477994
0,0,2018-03-17 00:00:00,-133.51878,68.32029,17.351521967160902
0,0,2018-03-18 00:00:00,-133.51878,68.32029,21.874304404942162
0,0,2018-03-19 00:00:00,-133.51878,68.32029,9.272050919185203
0,0,2018-03-20 00:00:00,-133.51878,68.32029,3.5824225545455106
0,0,2018-03-21 00:00:00,-133.51878,68.32029,11.071237024481086
0,0,2018-03-22 00:00:00,-133.51878,68.32029,24.068154620526528
0,0,2018-03-23 00:00:00,-133.51878,68.32029,12.225160521159046
0,0,2018-03-24 00:00:00,-133.51878,68.32029,14.971631787358577
0,0,2018-03-25 00:00:00,-133.51878,68.32029,17.043095874066378
0,0,2018-03-26 00:00:00,-133.51878,68.32029,15.441805355677216
0,0,2018-03-27 00:00:00,-133.51878,68.32029,3.7745058431107235
0,0,2018-03-28 00:00:00,-133.51878,68.32029,6.241440812984355
0,0,2018-03-29 00:00:00,-133.51878,68.32029,11.926516777970198
0,0,2018-03-30 00:00:00,-133.51878,68.32029,14.966454496899205
0,0,2018-03-31 00:00:00,-133.51878,68.32029,18.6268868350046
0,0,2018-04-01 00:00:00,-133.51878,68.32029,5.77278104143224
0,0,2018-04-02 00:00:00,-133.51878,68.32029,11.974458442315168
0,0,2018-04-03 00:00:00,-133.51878,68.32029,9.354714810896814
0,0,2018-04-04 00:00:00,-133.51878,68.32029,5.063211677425995
0,0,2018-04-05 00:00:00,-133.51878,68.32029,9.370295318599387
0,0,2018-04-06 00:00:00,-133.51878,68.32029,13.719375824136101
0,0,2018-04-07 00:00:00,-133.51878,68.32029,16.99549950072729
0,0,2018-04-08 00:00:00,-133.51878,68.32029,9.503423404876866
0,0,2018-04-09 00:00:00,-133.51878,68.32029,4.765291437187833
0,0,2018-04-10 00:00:00,-133.51878,68.32029,15.09585769365137
0,0,2018-04-11 00:00:00,-133.51878,68.32029,32.4887226085844
0,0,2018-04-12 00:00:00,-133.51878,68.32029,7.043385607829877
0,0,2018-04-13 00:00:00,-133.51878,68.32029,14.883735132479748
0,0,2018-04-14 00:00:00,-133.51878,68.32029,13.92233237938737
0,0,2018-04-15 00:00:00,-133.51878,68.32029,14.63798529843615
0,0,2018-04-16 00:00:00,-133.51878,68.32029,30.48594628711278
0,0,2018-04-17 00:00:00,-133.51878,68.32029,36.19059045264699
0,0,2018-04-18 00:00:00,-133.51878,68.32029,36.98924475987216
0,0,2018-04-19 00:00:00,-133.51878,68.32029,23.54351429688617
0,0,2018-04-20 00:00:00,-133.51878,68.32029,33.54267543015722
0,0,2018-04-21 00:00:00,-133.51878,68.32029,30.086498519515107
0,0,2018-04-22 00:00:00,-133.51878,68.32029,20.495788372997264
0,0,2018-04-23 00:00:00,-133.51878,68.32029,20.279052751206404
0,0,2018-04-24 00:00:00,-133.51878,68.32029,25.03732721786531
0,0,2018-04-25 00:00:00,-133.51878,68.32029,8.440923975311362
0,0,2018-04-26 00:00:00,-133.51878,68.32029,40.04705030871961
0,0,2018-04-27 00:00:00,-133.51878,68.32029,47.185531561269535
0,0,2018-04-28 00:00:00,-133.51878,68.32029,41.48397207332254
0,0,2018-04-29 00:00:00,-133.51878,68.32029,69.06317351536207
0,0,2018-04-30 00:00:00,-133.51878,68.32029,52.90969887275693
0,0,2018-05-01 00:00:00,-133.51878,68.32029,88.32185203274126
0,0,2018-05-02 00:00:00,-133.51878,68.32029,76.54177050043519
0,0,2018-05-03 00:00:00,-133.51878,68.32029,142.97014304806984
0,0,2018-05-04 00:00:00,-133.51878,68.32029,68.83197571975283
0,0,2018-05-05 00:00:00,-133.51878,68.32029,51.52279971568834
0,0,2018-05-06 00:00:00,-133.51878,68.32029,105.4354711580042
0,0,2018-05-07 00:00:00,-133.51878,68.32029,60.590843346178126
0,0,2018-05-08 00:00:00,-133.51878,68.32029,84.37717737636818
0,0,2018-05-09 00:00:00,-133.51878,68.32029,93.31000363741725
0,0,2018-05-10 00:00:00,-133.51878,68.32029,101.38584405957818
0,0,2018-05-11 00:00:00,-133.51878,68.32029,59.66619382823004
0,0,2018-05-12 00:00:00,-133.51878,68.32029,7.252434881209709
0,0,2018-05-13 00:00:00,-133.51878,68.32029,78.46461946295979
0,0,2018-05-14 00:00:00,-133.51878,68.32029,111.27104745333224
0,0,2018-05-15 00:00:00,-133.51878,68.32029,40.17765739363336
0,0,2018-05-16 00:00:00,-133.51878,68.32029,127.02364098922898
0,0,2018-05-17 00:00:00,-133.51878,68.32029,98.9242203485638
0,0,2018-05-18 00:00:00,-133.51878,68.32029,74.29762335007895
0,0,2018-05-19 00:00:00,-133.51878,68.32029,29.222347773389163
0,0,2018-05-20 00:00:00,-133.51878,68.32029,130.06185425534537
0,0,2018-05-21 00:00:00,-133.51878,68.32029,99.46921549511804
0,0,2018-05-22 00:00:00,-133.51878,68.32029,56.60020790329255
0,0,2018-05-23 00:00:00,-133.51878,68.32029,33.17885898216449
0,0,2018-05-24 00:00:00,-133.51878,68.32029,52.174974091393985
0,0,2018-05-25 00:00:00,-133.51878,68.32029,29.89318467824691
0,0,2018-05-26 00:00:00,-133.51878,68.32029,51.56080417730578
0,0,2018-05-27 00:00:00,-133.51878,68.32029,26.405460664364494
0,0,2018-05-28 00:00:00,-133.51878,68.32029,66.22772867905188
0,0,2018-05-29 00:00:00,-133.51878,68.32029,55.75302414096646
0,0,2018-05-30 00:00:00,-133.51878,68.32029,101.0307755856166
0,0,2018-05-31 00:00:00,-133.51878,68.32029,74.24405259741128
0,0,2018-06-01 00:00:00,-133.51878,68.32029,113.28983466331728
0,0,2018-06-02 00:00:00,-133.51878,68.32029,76.12663900280249
0,0,2018-06-03 00:00:00,-133.51878,68.32029,57.47411628035065
0,0,2018-06-04 00:00:00,-133.51878,68.32029,115.97269920613807
0,0,2018-06-05 00:00:00,-133.51878,68.32029,162.06101055056135
0,0,2018-06-06 00:00:00,-133.51878,68.32029,101.58397465920773
0,0,2018-06-07 00:00:00,-133.51878,68.32029,130.70372586586134
0,0,2018-06-08 00:00:00,-133.51878,68.32029,157.03948770670465
0,0,2018-06-09 00:00:00,-133.51878,68.32029,62.980226769204194
0,0,2018-06-10 00:00:00,-133.51878,68.32029,19.262113874736155
0,0,2018-06-11 00:00:00,-133.51878,68.32029,26.36732317164486
0,0,2018-06-12 00:00:00,-133.51878,68.32029,49.30700766760791
0,0,2018-06-13 00:00:00,-133.51878,68.32029,99.42862450930782
0,0,2018-06-14 00:00:00,-133.51878,68.32029,125.62762821975834
0,0,2018-06-15 00:00:00,-133.51878,68.32029,54.795549358168195
0,0,2018-06-16 00:00:00,-133.51878,68.32029,2.6112726249777984
0,0,2018-06-17 00:00:00,-133.51878,68.32029,68.86078268027038
0,0,2018-06-18 00:00:00,-133.51878,68.32029,123.52945345245307
0,0,2018-06-19 00:00:00,-133.51878,68.32029,-2.2419630847324368
0,0,2018-06-20 00:00:00,-133.51878,68.32029,57.67360614916552
0,0,2018-06-21 00:00:00,-133.51878,68.32029,90.96120917628774
0,0,2018-06-22 00:00:00,-133.51878,68.32029,154.4443925229696
0,0,2018-06-23 00:00:00,-133.51878,68.32029,9.34775101932466
0,0,2018-06-24 00:00:00,-133.51878,68.32029,56.98837750295649
0,0,2018-06-25 00:00:00,-133.51878,68.32029,11.239045386543
0,0,2018-06-26 00:00:00,-133.51878,68.32029,98.80344727380509
0,0,2018-06-27 00:00:00,-133.51878,68.32029,49.03031762992293
0,0,2018-06-28 00:00:00,-133.51878,68.32029,6.383477813241073
0,0,2018-06-29 00:00:00,-133.51878,68.32029,40.128128451719675
0,0,2018-06-30 00:00:00,-133.51878,68.32029,103.53183206967758
0,0,2018-07-01 00:00:00,-133.51878,68.32029,53.07045846847149
0,0,2018-07-02 00:00:00,-133.51878,68.32029,100.58074406192874
0,0,2018-07-03 00:00:00,-133.51878,68.32029,54.94311038562447
0,0,2018-07-04 00:00:00,-133.51878,68.32029,38.56912216992171
0,0,2018-07-05 00:00:00,-133.51878,68.32029,32.40595600154016
0,0,2018-07-06 00:00:00,-133.51878,68.32029,-2.0936322145783657
0,0,2018-07-07 00:00:00,-133.51878,68.32029,47.099595925619184
0,0,2018-07-08 00:00:00,-133.51878,68.32029,59.561433785594836
0,0,2018-07-09 00:00:00,-133.51878,68.32029,36.95310932223303
0,0,2018-07-10 00:00:00,-133.51878,68.32029,118.53271903096662
0,0,2018-07-11 00:00:00,-133.51878,68.32029,-1.882545944863277
0,0,2018-07-12 00:00:00,-133.51878,68.32029,45.616887032997774
0,0,2018-07-13 00:00:00,-133.51878,68.32029,15.573205704295733
0,0,2018-07-14 00:00:00,-133.51878,68.32029,63.86865684772491
0,0,2018-07-15 00:00:00,-133.51878,68.32029,93.82025086387479
0,0,2018-07-16 00:00:00,-133.51878,68.32029,110.5595467967821
0,0,2018-07-17 00:00:00,-133.51878,68.32029,-22.923726924763
0,0,2018-07-18 00:00:00,-133.51878,68.32029,134.62686352232026
0,0,2018-07-19 00:00:00,-133.51878,68.32029,-11.830699170711105
0,0,2018-07-20 00:00:00,-133.51878,68.32029,31.192011374688416
0,0,2018-07-21 00:00:00,-133.51878,68.32029,10.652881896572085
0,0,2018-07-22 00:00:00,-133.51878,68.32029,47.356934202433386
0,0,2018-07-23 00:00:00,-133.51878,68.32029,43.287041652571475
0,0,2018-07-24 00:00:00,-133.51878,68.32029,74.92404844536192
0,0,2018-07-25 00:00:00,-133.51878,68.32029,57.384868716353104
0,0,2018-07-26 00:00:00,-133.51878,68.32029,78.03954267717675
0,0,2018-07-27 00:00:00,-133.51878,68.32029,3.3728174902186847
0,0,2018-07-28 00:00:00,-133.51878,68.32029,35.98228742104508
0,0,2018-07-29 00:00:00,-133.51878,68.32029,3.6146499052275445
0,0,2018-07-30 00:00:00,-133.51878,68.32029,62.92265964910354
0,0,2018-07-31 00:00:00,-133.51878,68.32029,50.54456932689681
0,0,2018-08-01 00:00:00,-133.51878,68.32029,11.917448928222202
0,0,2018-08-02 00:00:00,-133.51878,68.32029,23.07029966244541
0,0,2018-08-03 00:00:00,-133.51878,68.32029,52.314772232508496
0,0,2018-08-04 00:00:00,-133.51878,68.32029,48.63739647465105
0,0,2018-08-05 00:00:00,-133.51878,68.32029,17.326348698232504
0,0,2018-08-06 00:00:00,-133.51878,68.32029,29.291874496005814
0,0,2018-08-07 00:00:00,-133.51878,68.32029,13.077851998236332
0,0,2018-08-08 00:00:00,-133.51878,68.32029,24.659976009669677
0,0,2018-08-09 00:00:00,-133.51878,68.32029,54.52677817325817
0,0,2018-08-10 00:00:00,-133.51878,68.32029,34.82754250366428
0,0,2018-08-11 00:00:00,-133.51878,68.32029,-0.2636811196488239
0,0,2018-08-12 00:00:00,-133.51878,68.32029,91.4455423023468
0,0,2018-08-13 00:00:00,-133.51878,68.32029,17.97022619694012
0,0,2018-08-14 00:00:00,-133.51878,68.32029,20.027302833799933
0,0,2018-08-15 00:00:00,-133.51878,68.32029,71.7355526295777
0,0,2018-08-16 00:00:00,-133.51878,68.32029,-10.488452764213191
0,0,2018-08-17 00:00:00,-133.51878,68.32029,23.18143496711284
0,0,2018-08-18 00:00:00,-133.51878,68.32029,26.53254455344271
0,0,2018-08-19 00:00:00,-133.51878,68.32029,43.21730806701748
0,0,2018-08-20 00:00:00,-133.51878,68.32029,64.23795700915538
0,0,2018-08-21 00:00:00,-133.51878,68.32029,14.322080665657332
0,0,2018-08-22 00:00:00,-133.51878,68.32029,51.777368197995294
0,0,2018-08-23 00:00:00,-133.51878,68.32029,38.985106954983735
0,0,2018-08-24 00:00:00,-133.51878,68.32029,77.1342807158267
0,0,2018-08-25 00:00:00,-133.51878,68.32029,60.535747190023045
0,0,2018-08-26 00:00:00,-133.51878,68.32029,4.8919757535559425
0,0,2018-08-27 00:00:00,-133.51878,68.32029,26.084345912385924
0,0,2018-08-28 00:00:00,-133.51878,68.32029,-7.17088120858698
0,0,2018-08-29 00:00:00,-133.51878,68.32029,69.0640513112592
0,0,2018-08-30 00:00:00,-133.51878,68.32029,8.801491028720442
0,0,2018-08-31 00:00:00,-133.51878,68.32029,63.05345919087182
0,0,2018-09-01 00:00:00,-133.51878,68.32029,-4.690473116735367
0,0,2018-09-02 00:00:00,-133.51878,68.32029,6.997648349018024
0,0,2018-09-03 00:00:00,-133.51878,68.32029,-3.285173879219599
0,0,2018-09-04 00:00:00,-133.51878,68.32029,39.26724856095608
0,0,2018-09-05 00:00:00,-133.51878,68.32029,21.320021166379185
0,0,2018-09-06 00:00:00,-133.51878,68.32029,1.2422135085739234
0,0,2018-09-07 00:00:00,-133.51878,68.32029,35.184618780486986
0,0,2018-09-08 00:00:00,-133.51878,68.32029,76.21493215501789
0,0,2018-09-09 00:00:00,-133.51878,68.32029,3.4706621580505774
0,0,2018-09-10 00:00:00,-133.51878,68.32029,26.660256633401655
0,0,2018-09-11 00:00:00,-133.51878,68.32029,46.40624301074589
0,0,2018-09-12 00:00:00,-133.51878,68.32029,55.562640161197926
0,0,2018-09-13 00:00:00,-133.51878,68.32029,52.037878798918705
0,0,2018-09-14 00:00:00,-133.51878,68.32029,26.786982710202654
0,0,2018-09-15 00:00:00,-133.51878,68.32029,33.28857582508116
0,0,2018-09-16 00:00:00,-133.51878,68.32029,53.70230950677274
0,0,2018-09-17 00:00:00,-133.51878,68.32029,36.44927322921371
0,0,2018-09-18 00:00:00,-133.51878,68.32029,44.79146707113798
0,0,2018-09-19 00:00:00,-133.51878,68.32029,2.9885987759812767
0,0,2018-09-20 00:00:00,-133.51878,68.32029,28.3977308608906
0,0,2018-09-21 00:00:00,-133.51878,68.32029,50.11639185651057
0,0,2018-09-22 00:00:00,-133.51878,68.32029,23.406830158380032
0,0,2018-09-23 00:00:00,-133.51878,68.32029,13.77304689312754
0,0,2018-09-24 00:00:00,-133.51878,68.32029,18.943064268091593
0,0,2018-09-25 00:00:00,-133.51878,68.32029,0.9796525671199353
0,0,2018-09-26 00:00:00,-133.51878,68.32029,19.750617262498306
0,0,2018-09-27 00:00:00,-133.51878,68.32029,23.742265991852324
0,0,2018-09-28 00:00:00,-133.51878,68.32029,15.062810593424237
0,0,2018-09-29 00:00:00,-133.51878,68.32029,36.47097731244893
0,0,2018-09-30 00:00:00,-133.51878,68.32029,3.434328823245211
0,0,2018-10-01 00:00:00,-133.51878,68.32029,21.364533270261997
0,0,2018-10-02 00:00:00,-133.51878,68.32029,51.55199138355522
0,0,2018-10-03 00:00:00,-133.51878,68.32029,0.35991731999073023
0,0,2018-10-04 00:00:00,-133.51878,68.32029,37.184302468896526
0,0,2018-10-05 00:00:00,-133.51878,68.32029,-0.4555709227779731
0,0,2018-10-06 00:00:00,-133.51878,68.32029,19.161184393155782
0,0,2018-10-07 00:00:00,-133.51878,68.32029,27.76104647366567
0,0,2018-10-08 00:00:00,-133.51878,68.32029,21.45891000083353
0,0,2018-10-09 00:00:00,-133.51878,68.32029,7.115204986688915
0,0,2018-10-10 00:00:00,-133.51878,68.32029,7.4892490208050475
0,0,2018-10-11 00:00:00,-133.51878,68.32029,17.35821246440601
0,0,2018-10-12 00:00:00,-133.51878,68.32029,5.1281377063675455
0,0,2018-10-13 00:00:00,-133.51878,68.32029,10.017576076497468
0,0,2018-10-14 00:00:00,-133.51878,68.32029,7.564126011316279
0,0,2018-10-15 00:00:00,-133.51878,68.32029,4.682346456381797
0,0,2018-10-16 00:00:00,-133.51878,68.32029,4.629175892672053
0,0,2018-10-17 00:00:00,-133.51878,68.32029,9.760411669521
0,0,2018-10-18 00:00:00,-133.51878,68.32029,15.793600325772074
0,0,2018-10-19 00:00:00,-133.51878,68.32029,11.150318554838238
0,0,2018-10-20 00:00:00,-133.51878,68.32029,-0.40980778378953125
0,0,2018-10-21 00:00:00,-133.51878,68.32029,4.161435600166146
0,0,2018-10-22 00:00:00,-133.51878,68.32029,5.428869913302972
0,0,2018-10-23 00:00:00,-133.51878,68.32029,-5.800459628495136
0,0,2018-10-24 00:00:00,-133.51878,68.32029,0.6852115255426519
0,0,2018-10-25 00:00:00,-133.51878,68.32029,7.2838314599900995
0,0,2018-10-26 00:00:00,-133.51878,68.32029,-1.4110186540796044
0,0,2018-10-27 00:00:00,-133.51878,68.32029,4.013269455902648
0,0,2018-10-28 00:00:00,-133.51878,68.32029,-0.316481700381655
0,0,2018-10-29 00:00:00,-133.51878,68.32029,1.8766761030943393
0,0,2018-10-30 00:00:00,-133.51878,68.32029,-1.290578615213656
0,0,2018-10-31 00:00:00,-133.51878,68.32029,-0.7194925885808595
0,0,2018-11-01 00:00:00,-133.51878,68.32029,-0.2033062108384401
0,0,2018-11-02 00:00:00,-133.51878,68.32029,-0.6952341455964551
0,0,2018-11-03 00:00:00,-133.51878,68.32029,0.9547839453108026
0,0,2018-11-04 00:00:00,-133.51878,68.32029,-3.0456258278120267
0,0,2018-11-05 00:00:00,-133.51878,68.32029,2.937962619300406
0,0,2018-11-06 00:00:00,-133.51878,68.32029,7.333661285425044
0,0,2018-11-07 00:00:00,-133.51878,68.32029,7.254613706456432
0,0,2018-11-08 00:00:00,-133.51878,68.32029,1.6133684370055301
0,0,2018-11-09 00:00:00,-133.51878,68.32029,-2.3898212250183364
0,0,2018-11-10 00:00:00,-133.51878,68.32029,-8.807701961159683
0,0,2018-11-11 00:00:00,-133.51878,68.32029,5.203664248338726
0,0,2018-11-12 00:00:00,-133.51878,68.32029,26.26509775341483
0,0,2018-11-13 00:00:00,-133.51878,68.32029,10.19278841501784
0,0,2018-11-14 00:00:00,-133.51878,68.32029,2.436075389109881
0,0,2018-11-15 00:00:00,-133.51878,68.32029,13.845236137466975
0,0,2018-11-16 00:00:00,-133.51878,68.32029,13.389453401338498
0,0,2018-11-17 00:00:00,-133.51878,68.32029,13.952749949363154
0,0,2018-11-18 00:00:00,-133.51878,68.32029,1.6197943196064355
0,0,2018-11-19 00:00:00,-133.51878,68.32029,-5.694299782329488
0,0,2018-11-20 00:00:00,-133.51878,68.32029,-3.394904019024734
0,0,2018-11-21 00:00:00,-133.51878,68.32029,12.755610828563277
0,0,2018-11-22 00:00:00,-133.51878,68.32029,15.751858967980487
0,0,2018-11-23 00:00:00,-133.51878,68.32029,12.861190882485039
0,0,2018-11-24 00:00:00,-133.51878,68.32029,13.978382155707033
0,0,2018-11-25 00:00:00,-133.51878,68.32029,11.38000990830299
0,0,2018-11-26 00:00:00,-133.51878,68.32029,5.708721424772843
0,0,2018-11-27 00:00:00,-133.51878,68.32029,1.967545509590275
0,0,2018-11-28 00:00:00,-133.51878,68.32029,3.808980167320348
0,0,2018-11-29 00:00:00,-133.51878,68.32029,1.8288585485699096
0,0,2018-11-30 00:00:00,-133.51878,68.32029,-5.88873946289231
0,0,2018-12-01 00:00:00,-133.51878,68.32029,-7.8790920744660555
0,0,2018-12-02 00:00:00,-133.51878,68.32029,-6.1641306539199086
0,0,2018-12-03 00:00:00,-133.51878,68.32029,-9.131510566164001
0,0,2018-12-04 00:00:00,-133.51878,68.32029,0.7047491819034443
0,0,2018-12-05 00:00:00,-133.51878,68.32029,2.5449231207284737
0,0,2018-12-06 00:00:00,-133.51878,68.32029,11.568489645466059
0,0,2018-12-07 00:00:00,-133.51878,68.32029,9.846609343346225
0,0,2018-12-08 00:00:00,-133.51878,68.32029,-3.9166086106288733
0,0,2018-12-09 00:00:00,-133.51878,68.32029,3.370353711505457
0,0,2018-12-10 00:00:00,-133.51878,68.32029,5.538954842600664
0,0,2018-12-11 00:00:00,-133.51878,68.32029,-2.4091313025003376
0,0,2018-12-12 00:00:00,-133.51878,68.32029,1.3058568853442394
0,0,2018-12-13 00:00:00,-133.51878,68.32029,5.59889246366675
0,0,2018-12-14 00:00:00,-133.51878,68.32029,5.425305099108321
0,0,2018-12-15 00:00:00,-133.51878,68.32029,7.8792429978761325
0,0,2018-12-16 00:00:00,-133.51878,68.32029,7.269777188944175
0,0,2018-12-17 00:00:00,-133.51878,68.32029,-1.99240567769356
0,0,2018-12-18 00:00:00,-133.51878,68.32029,-3.711430160334998
0,0,2018-12-19 00:00:00,-133.51878,68.32029,2.000157597449259
0,0,2018-12-20 00:00:00,-133.51878,68.32029,1.5936416396736561
0,0,2018-12-21 00:00:00,-133.51878,68.32029,-2.8606762817477165
0,0,2018-12-22 00:00:00,-133.51878,68.32029,1.0593321314824966
0,0,2018-12-23 00:00:00,-133.51878,68.32029,3.52833830032203
0,0,2018-12-24 00:00:00,-133.51878,68.32029,-2.086672951265222
0,0,2018-12-25 00:00:00,-133.51878,68.32029,5.739758890912552
0,0,2018-12-26 00:00:00,-133.51878,68.32029,4.80633641822351
0,0,2018-12-27 00:00:00,-133.51878,68.32029,-0.44941773860270695
0,0,2018-12-28 00:00:00,-133.51878,68.32029,3.2405121019949124
0,0,2018-12-29 00:00:00,-133.51878,68.32029,-1.7888032179881155
0,0,2018-12-30 00:00:00,-133.51878,68.32029,-8.159916626827593
0,0,2018-12-31 00:00:00,-133.51878,68.32029,-9.879119743835139
